<?xml version="1.0" encoding="utf-8"?>
<!-- Generator: Adobe Illustrator 22.1.0, SVG Export Plug-In . SVG Version: 6.00 Build 0)  -->
<svg version="1.1" id="Layer_1" xmlns="http://www.w3.org/2000/svg" xmlns:xlink="http://www.w3.org/1999/xlink" x="0px" y="0px"
	 viewBox="0 0 300 300" style="enable-background:new 0 0 300 300;" xml:space="preserve">
<style type="text/css">
	.st0{fill:#FFFFFF;}
</style>
<g>
	<path d="M237.7,193.4c-14.5-11-17.2-24.9-7.5-35.9c8.5-9.8,24-10.2,33-0.9c10.5,10.8,8.1,24.7-8,38.3c6.3,5.1,12,10.4,18.4,14.5
		c5.4,3.4,11.6,6.2,17.9,7.7c6.9,1.6,9.2,5,8.2,11.6c-0.3,1.8-0.2,3.7-0.4,6.3c-15.9-3.7-30.3-9.6-44.2-19.8c0,18.5,0,35.8,0,53.8
		c-5.4,0-10.1,0-15.3,0c0-17.8,0-35.4,0-53.1C180,248,120.6,248,60.4,216c0,17.3,0,35.1,0,53.2c-5.4,0-9.9,0-15.1,0
		c0-17.8,0-35.2,0-54.1c-14.3,9.8-28.6,16.4-44.7,19.7c-0.2-1.7-0.2-2.8-0.4-4c-1-7.5,0.9-11.5,9.3-14.3
		c10.5-3.6,19.9-10.7,29.5-16.6c2-1.2,3.1-3.9,4.5-5.9c-14.9-12.8-17.3-26.6-6.9-37.3c9.1-9.3,24.5-8.9,33,0.8
		c9.7,11.1,7.1,25-7.9,36.3c3.5,3.4,6.5,7.1,10.3,9.8c15.1,10.8,32.6,16,50.7,18.8c32.5,5,64.2,1.9,94.3-12.3
		C225.1,206.3,232.5,201.6,237.7,193.4z M54.7,164.1c-1.1,0-2.2-0.1-3.3-0.1c-1.9,2.6-4.9,5-5.5,7.9c-0.8,4.4,2.1,8.2,6.7,7.3
		c2.8-0.5,6.9-4,7.1-6.4C60,170,56.6,167,54.7,164.1z M249.6,164.2c-1.1-0.1-2.2-0.2-3.3-0.4c-2.2,2.7-6,5.3-6.1,8
		c-0.1,2.4,3.5,6.4,6.2,7.2c4.4,1.4,7.9-1.8,7.6-6.4C253.9,169.8,251.2,167.1,249.6,164.2z"/>
	<path d="M224.4,134.6c-49.6,0-98.8,0-148.6,0c0-34.3,0-68.7,0-103.8c49.2,0,98.7,0,148.6,0C224.4,65.3,224.4,99.5,224.4,134.6z
		 M90.9,45.6c0,25.1,0,49.4,0,73.9c13.9,0,27.9,2.6,40.2-0.9c8.7-2.5,15-13.3,22.4-20.4c2.2-2.1,4.3-4.3,6.4-6.4
		c6.5-6.6,13-13.2,21.3-21.7c9.7,10.3,18.7,19.8,27.8,29.5c0-18.2,0-36,0-54C169.5,45.6,130.5,45.6,90.9,45.6z M179.7,95.4
		c-7.5,7.6-15.7,15.8-23.8,24c15.9,0,32.2,0,48,0C195.8,111.3,187.6,103.2,179.7,95.4z"/>
	<path class="st0" d="M54.7,164.1c1.8,2.9,5.3,6,5,8.7c-0.2,2.4-4.3,5.8-7.1,6.4c-4.6,0.9-7.5-2.9-6.7-7.3c0.5-2.9,3.6-5.3,5.5-7.9
		C52.5,164,53.6,164,54.7,164.1z"/>
	<path class="st0" d="M249.6,164.2c1.6,2.8,4.2,5.6,4.4,8.5c0.3,4.5-3.2,7.8-7.6,6.4c-2.7-0.9-6.3-4.8-6.2-7.2
		c0.1-2.7,3.9-5.3,6.1-8C247.4,164,248.5,164.1,249.6,164.2z"/>
	<path d="M120.3,60.2c8.5,0.1,14.9,6.8,14.7,15.3c-0.2,8.2-6.6,14.5-14.8,14.6c-8.5,0.1-15.1-6.5-15-15
		C105.2,66.6,111.8,60.1,120.3,60.2z"/>
</g>
</svg>
