<?xml version="1.0" encoding="utf-8"?>
<!-- Generator: Adobe Illustrator 22.1.0, SVG Export Plug-In . SVG Version: 6.00 Build 0)  -->
<svg version="1.1" id="Layer_1" xmlns="http://www.w3.org/2000/svg" xmlns:xlink="http://www.w3.org/1999/xlink" x="0px" y="0px"
	 viewBox="0 0 300 300" style="enable-background:new 0 0 300 300;" xml:space="preserve">
<style type="text/css">
	.st0{font-family:'Impact';}
	.st1{font-size:117.1341px;}
</style>
<g>
	<g>
		<path d="M17.6,240.8c6.1-0.8,11.7-1.5,17.7-2.2c0,5,0,9.4,0,14.2c-6.7,1.1-13.4,2.3-20.2,3.2c-4.5,0.6-9-2.9-10.1-7.7
			c-0.5-2.2-0.6-4.5-0.6-6.8c0-66.4,0-132.7,0-199.1c0-2.5,0-5,0.5-7.4c1.1-5.4,6-8.5,11.4-7.9c27.1,3,54.2,7.1,81.5,8.7
			c27.8,1.6,55.7,1.7,83.6,0.8c25.5-0.8,51-3.5,76.5-5.7c8.2-0.7,16.4-2.2,24.6-3.6c7.1-1.2,12.1,2.3,12.9,9.5
			c0.2,1.9,0.2,3.9,0.2,5.8c0,66.2,0,132.4,0,198.6c0,2.1-0.1,4.3-0.5,6.3c-1,5.7-6,9-11.6,8.2c-6.1-1-12.2-1.9-18.8-2.9
			c0-4.3,0-8.8,0-14.1c5.7,0.6,11.5,1.3,17.7,2c0-66.3,0-132,0-198.7c-88.3,13.2-176.4,13.3-264.9,0
			C17.6,108.6,17.6,174.3,17.6,240.8z"/>
		<path d="M48.9,272.9c-2.7-15.5,6.3-28.1,22.3-31.2c10.2-2,20.3-1.5,29.8,3.8c9.2,5.2,13.3,13.3,13.4,23.6c0,1.3-1.8,3.7-2.8,3.7
			C90.8,273,70,272.9,48.9,272.9z"/>
		<path d="M62,212.3c-0.1-15.5,12.9-25.8,26-20.6c8.1,3.2,13.4,12.9,12.5,22.4c-1.1,10.6-7.4,18.1-16.8,19.7
			C72.4,235.8,62.1,225.6,62,212.3z"/>
		<path d="M122.6,272.9c-2.7-15.5,6.3-28.1,22.3-31.2c10.2-2,20.3-1.5,29.8,3.8c9.2,5.2,13.3,13.3,13.4,23.6c0,1.3-1.8,3.7-2.8,3.7
			C164.4,273,143.7,272.9,122.6,272.9z"/>
		<path d="M135.7,212.3c-0.1-15.5,12.9-25.8,26-20.6c8.1,3.2,13.4,12.9,12.5,22.4c-1.1,10.6-7.4,18.1-16.8,19.7
			C146.1,235.8,135.7,225.6,135.7,212.3z"/>
		<path d="M196.3,272.9c-2.7-15.5,6.3-28.1,22.3-31.2c10.2-2,20.3-1.5,29.8,3.8c9.2,5.2,13.3,13.3,13.4,23.6c0,1.3-1.8,3.7-2.8,3.7
			C238.1,273,217.3,272.9,196.3,272.9z"/>
		<path d="M209.3,212.3c-0.1-15.5,12.9-25.8,26-20.6c8.1,3.2,13.4,12.9,12.5,22.4c-1.1,10.6-7.4,18.1-16.8,19.7
			C219.7,235.8,209.4,225.6,209.3,212.3z"/>
	</g>
	<text transform="matrix(1 0 0 1 120.6019 166.8219)" class="st0 st1">2</text>
</g>
</svg>
