<?xml version="1.0" encoding="utf-8"?>
<!-- Generator: Adobe Illustrator 22.0.1, SVG Export Plug-In . SVG Version: 6.00 Build 0)  -->
<svg version="1.1" id="Layer_1" xmlns="http://www.w3.org/2000/svg" xmlns:xlink="http://www.w3.org/1999/xlink" x="0px" y="0px"
	 viewBox="0 0 198.4 198.4" style="enable-background:new 0 0 198.4 198.4;" xml:space="preserve">
<style type="text/css">
	.st0{fill:none;stroke:#000000;stroke-width:10;stroke-miterlimit:10;}
	.st1{fill:none;stroke:#000000;stroke-width:12;stroke-miterlimit:10;}
	.st2{fill:none;stroke:#000000;stroke-width:8;stroke-miterlimit:10;}
	.st3{fill:#FFFFFF;}
	.st4{fill:#434444;}
	.st5{fill:none;}
</style>
<g>
	<path d="M41.8,130.3c-5.6,0-10.1-4.5-10.1-10.1V41.4c0-5.6,4.5-10.1,10.1-10.1h78.8c5.6,0,10.1,4.5,10.1,10.1v33.3h10.1V41.4
		c0-11.1-9-20.2-20.2-20.2H41.8c-11.1,0-20.2,9-20.2,20.2v78.8c0,11.1,9,20.2,20.2,20.2h32.5v-10.1H41.8z"/>
	<path d="M159.8,81h-19h-10.1h-33c-9.4,0-17,7.6-17,17v32.3v10.1v19.8c0,9.4,7.6,17,17,17h62.2c9.4,0,17-7.6,17-17V98
		C176.8,88.6,169.2,81,159.8,81z M166.7,160.2c0,3.8-3.1,6.9-6.9,6.9H97.6c-3.8,0-6.9-3.1-6.9-6.9v-19.8v-10.1V98
		c0-3.8,3.1-6.9,6.9-6.9h33h10.1h19c3.8,0,6.9,3.1,6.9,6.9V160.2z"/>
</g>
</svg>
