<?xml version="1.0" encoding="utf-8"?>
<!-- Generator: Adobe Illustrator 22.1.0, SVG Export Plug-In . SVG Version: 6.00 Build 0)  -->
<svg version="1.1" id="Layer_1" xmlns="http://www.w3.org/2000/svg" xmlns:xlink="http://www.w3.org/1999/xlink" x="0px" y="0px"
	 viewBox="0 0 300 300" style="enable-background:new 0 0 300 300;" xml:space="preserve">
<style type="text/css">
	.st0{fill:none;stroke:#000000;stroke-width:5;stroke-miterlimit:10;}
</style>
<g>
	<g>
		<g>
			<path d="M141,170.9v114.4c0,6.1-5,11.1-11.1,11.1H15.6c-6.1,0-11.1-5-11.1-11.1V170.9c0-6.1,5-11.1,11.1-11.1H130
				C136.1,159.8,141,164.8,141,170.9z"/>
			<path d="M141,14.7v114.4c0,6.1-5,11.1-11.1,11.1H15.6c-6.1,0-11.1-5-11.1-11.1V14.7c0-6.1,5-11.1,11.1-11.1H130
				C136.1,3.6,141,8.6,141,14.7z"/>
			<path class="st0" d="M295.5,170.9v114.4c0,6.1-5,11.1-11.1,11.1H170c-6.1,0-11.1-5-11.1-11.1V170.9c0-6.1,5-11.1,11.1-11.1h114.4
				C290.5,159.8,295.5,164.8,295.5,170.9z"/>
			<path d="M295.5,14.7v114.4c0,6.1-5,11.1-11.1,11.1H170c-6.1,0-11.1-5-11.1-11.1V14.7c0-6.1,5-11.1,11.1-11.1h114.4
				C290.5,3.6,295.5,8.6,295.5,14.7z"/>
		</g>
	</g>
	<g>
		<path d="M235.2,269c0-8.6,0.2-16.8-0.1-24.9c-0.2-5.3,1.3-7.7,7.1-7.3c8.2,0.5,16.4,0.1,25.2,0.1c0.2-3.3,0.2-5.8,0.5-8.3
			c0.8-6.2-1.3-9.1-8.1-8.5c-5.8,0.5-11.8-0.1-17.6,0.2c-5.1,0.3-7.4-1.3-7-6.7c0.4-4.9,0.1-9.9,0.1-14.8c0-11.7-0.2-11.9-11.7-11.1
			c-3.5,0.2-5.1,1.3-5,5c0.2,6.6-0.3,13.2,0.2,19.8c0.5,6.3-1.6,8.3-7.9,8c-8.1-0.5-16.2-0.1-24.4-0.1c0,6.2,0,11,0,16.9
			c10.8,0,21.3,0,32.5,0c0,11.3,0,21.5,0,31.9C224.5,269,229.4,269,235.2,269z"/>
	</g>
</g>
</svg>
