<?xml version="1.0" encoding="utf-8"?>
<!-- Generator: Adobe Illustrator 22.1.0, SVG Export Plug-In . SVG Version: 6.00 Build 0)  -->
<svg version="1.1" id="Layer_1" xmlns="http://www.w3.org/2000/svg" xmlns:xlink="http://www.w3.org/1999/xlink" x="0px" y="0px"
	 viewBox="0 0 300 300" style="enable-background:new 0 0 300 300;" xml:space="preserve">
<style type="text/css">
	.st0{font-family:'Impact';}
	.st1{font-size:146.7658px;}
</style>
<g>
	<text transform="matrix(1 0 0 1 112.9371 202.3654)" class="st0 st1">3</text>
	<g>
		<path d="M37.2,163.3c-5.2,0-11.2,0.1-17.2,0c-7-0.1-12.3-4-13.7-10c-2.2-8.8,4-16.4,13.4-16.6c6.1-0.1,12.2,0,18.6,0
			c2.7-20.9,10.4-39.6,23.6-56.5c-4.8-4.6-9.7-9-14.2-13.8c-6.8-7.2-3.9-18.6,5.4-21.7c5.1-1.7,9.8-0.5,13.6,3.3
			c4.5,4.5,8.8,9.1,13.4,13.7c16.8-13.1,35.3-20.8,56.4-23.5c0-4.9,0-9.8,0-14.7c0-2.2,0-4.5,0.4-6.7c1-6.5,6.6-11.2,13-11.1
			c6.4,0.1,12.1,4.7,12.9,11.3c0.5,4.1,0.3,8.4,0.4,12.5c0,2.8,0,5.6,0,8.7c20.8,2.7,39.5,10.4,56.4,23.6c4.5-4.6,8.8-9.2,13.4-13.6
			c7.8-7.4,19.8-4,22.3,6.3c1.2,5-0.4,9.3-4,12.9c-4.3,4.3-8.7,8.6-13.1,13c13,16.6,20.6,35.3,23.4,56.2c6.3,0,12.4-0.1,18.5,0
			c7.2,0.1,12.4,4.2,13.7,10.7c1.5,7.2-3.1,14.5-10.5,15.5c-4.6,0.6-9.4,0.4-14.1,0.5c-2.5,0-4.9,0-7.6,0
			c-2.7,20.9-10.4,39.5-23.5,56.3c4.5,4.4,9.1,8.8,13.5,13.3c4.2,4.3,5.2,9.9,2.8,15.1c-2.3,5-7.6,8.5-13,7.5
			c-3.2-0.6-6.5-2.3-8.9-4.5c-4.5-3.9-8.5-8.4-12.9-12.9c-16.7,12.9-35.2,20.7-56.3,23.4c0,5.5,0,10.9,0,16.4c0,2.1-0.1,4.3-0.6,6.4
			c-1.3,5.6-7.1,9.9-12.9,9.8c-6.2-0.1-11.9-4.6-12.7-10.7c-0.6-4.2-0.4-8.6-0.5-12.9c-0.1-2.9,0-5.8,0-9
			c-20.8-2.8-39.5-10.4-56.2-23.5c-4.5,4.5-8.9,9-13.2,13.4c-3.8,3.9-8.4,5.2-13.6,3.7c-9.5-2.7-12.7-14.3-5.9-21.7
			c3.5-3.9,7.4-7.5,11.1-11.2c0.9-0.9,2-1.7,2.2-1.9c-5.2-9.5-10.8-18.1-14.7-27.4C42.5,183.8,40.4,173.7,37.2,163.3z M149.9,64.2
			c-47-0.1-85.7,38.2-85.8,84.8c-0.1,48.5,37.9,86.9,86,86.9c47.1,0,85.5-38.3,85.6-85.4C236,102.6,197.8,64.2,149.9,64.2z"/>
	</g>
</g>
</svg>
