<?xml version="1.0" encoding="utf-8"?>
<!-- Generator: Adobe Illustrator 16.0.0, SVG Export Plug-In . SVG Version: 6.00 Build 0)  -->
<!DOCTYPE svg PUBLIC "-//W3C//DTD SVG 1.1//EN" "http://www.w3.org/Graphics/SVG/1.1/DTD/svg11.dtd">
<svg version="1.1" id="Layer_1" xmlns="http://www.w3.org/2000/svg" xmlns:xlink="http://www.w3.org/1999/xlink" x="0px" y="0px"
	 width="1462.857px" height="300px" viewBox="0 0 1462.857 300" enable-background="new 0 0 1462.857 300" xml:space="preserve">
<g>
	<g>
		<defs>
			<path id="SVGID_672_" d="M960.11,53.817c0,0-47.25,86.264-73.525,127.705c-26.307,41.472,11.43,67.108,11.43,67.108
				L970.2,114.474l91.658,51.209L995.804,53.817c-6.064-9.005-12.068-12.006-17.336-12.006
				C967.868,41.812,960.11,53.817,960.11,53.817"/>
		</defs>
		<use xlink:href="#SVGID_672_"  overflow="visible" fill="#231F20"/>
		<clipPath id="SVGID_2_">
			<use xlink:href="#SVGID_672_"  overflow="visible"/>
		</clipPath>
		<rect x="860.278" y="41.812" clip-path="url(#SVGID_2_)" fill="#231F20" width="201.58" height="206.819"/>
	</g>
	<g>
		<defs>
			<path id="SVGID_674_" d="M904.782,243.904c0,0-2.043,13.472,11.494,14.813c13.441,1.376,169.176,0,169.176,0
				s31-2.009,41.824-31.031H969.562V123.927L904.782,243.904z"/>
		</defs>
		<use xlink:href="#SVGID_674_"  overflow="visible" fill="#231F20"/>
		<clipPath id="SVGID_3_">
			<use xlink:href="#SVGID_674_"  overflow="visible"/>
		</clipPath>
		<rect x="902.739" y="123.927" clip-path="url(#SVGID_3_)" fill="#231F20" width="224.537" height="136.166"/>
	</g>
	<g>
		<defs>
			<path id="SVGID_676_" d="M990.058,40.564l79.145,129.177l-2.586,1.341l-83.615,51.239h132.111c0,0,28.287-4.787,12.164-30.713
				c-16.188-25.926-69.631-118.955-69.631-118.955s-11.047-22.063-41.6-30.842c-4.119-1.146-11.494-1.79-17.719-1.79
				C995.007,40.021,992.005,40.216,990.058,40.564"/>
		</defs>
		<use xlink:href="#SVGID_676_"  overflow="visible" fill="#231F20"/>
		<clipPath id="SVGID_5_">
			<use xlink:href="#SVGID_676_"  overflow="visible"/>
		</clipPath>
		<rect x="983.001" y="40.021" clip-path="url(#SVGID_5_)" fill="#231F20" width="160.398" height="182.3"/>
	</g>
	<g>
		<path fill="#231F20" d="M1305.136,157.481c-0.318-1.312,0.672-2.588,2.141-2.842c1.275-0.255,2.457,0.318,3.066,1.275
			l52.484-9.482l29.787-5.395l14.877-2.683l7.473-1.341l3.734-0.668l1.5-0.26c0.16-0.095,0.607-0.029,0.607-0.219v-0.579v-4.337
			v-2.145v-0.857c0-0.064,0.031-0.13,0-0.194l-0.289-0.03l-0.479-0.064l-57.529-7.504l-28.959-3.764l-14.463-1.885l-7.244-0.957
			l-3.609-0.479l-1.342-0.195l-0.703-0.064l-0.318-0.06c-0.063,0.06-0.063,0.159-0.063,0.22v1.151v0.703v0.318
			c0,0.16,0.221,0.095,0.318,0.125l81.924,10.699c0.447-0.962,1.596-1.63,2.871-1.471c1.533,0.189,2.588,1.437,2.363,2.747
			c-0.223,1.307-1.66,2.234-3.127,2.045c-1.342-0.16-2.205-1.087-2.332-2.14l-82.881-10.824h-0.352
			c-0.127,0-0.189-0.064-0.158-0.159v-0.608v-1.146v-2.522c0-0.16-0.031-0.419,0.031-0.544l0.605,0.095l1.055,0.16l2.332,0.289
			l3.605,0.479l7.219,0.922l14.461,1.885l28.957,3.799l58.201,7.599l0.83,0.095l0.416,0.064c0.063,0.035,0,0.195,0.029,0.319v1.406
			v2.493v4.851v1.022c0.096,0.254-0.285,0.125-0.383,0.189l-0.639,0.13l-2.168,0.384l-3.738,0.703l-7.438,1.336l-14.91,2.683
			l-29.785,5.399l-52.52,9.447c-0.064,1.088-0.893,2.01-2.139,2.269C1306.925,159.62,1305.423,158.787,1305.136,157.481
			 M1389.134,126.733c-0.063,0.639,0.447,1.247,1.182,1.342c0.766,0.095,1.469-0.35,1.564-1.022
			c0.158-0.638-0.414-1.276-1.148-1.341C1389.964,125.587,1389.294,126.065,1389.134,126.733"/>
	</g>
	<g>
		<path fill="#231F20" d="M1380.896,128.873c0.225,1.311-0.828,2.522-2.361,2.747c-1.275,0.159-2.457-0.479-2.936-1.437
			l-33.492,4.373l-18.805,2.458l-9.385,1.217l-4.727,0.603l-2.17,0.255c-0.574,0.159-1.438-0.03-1.213,0.703l-0.16,6.994l-0.064,3.7
			l-0.127,1.405c0.127,0.354-0.225,1.152,0.512,0.833l111.262-18.517v-1.885c-0.033-0.703,0.031-1.276-0.063-1.82l-16.156-1.979
			c-0.447,0.987-1.596,1.596-2.875,1.466c-1.529-0.189-2.617-1.436-2.359-2.742c0.221-1.311,1.594-2.238,3.127-2.044
			c1.277,0.159,2.139,1.052,2.332,2.109l17.273,2.169c0.189,0.827,0.029,1.979,0.158,2.842v2.842c-3,0.703-5.205,0.922-7.568,1.341
			l-6.99,1.146l-14.145,2.363l-28.094,4.662l-56.957,9.448c-1.309,0.578-0.703-0.763-0.828-1.401l0.063-2.299l0.098-3.64
			l0.189-7.728c-0.385-1.151,1.182-0.893,2.012-1.087l2.555-0.319l4.662-0.638l9.447-1.212l18.807-2.428l33.488-4.402
			c0.129-1.058,1.023-1.984,2.299-2.109C1379.237,126.639,1380.642,127.566,1380.896,128.873 M1399.86,127.756
			c0.131-0.638-0.35-1.276-1.148-1.341c-0.797-0.095-1.469,0.354-1.627,1.021c-0.066,0.639,0.479,1.247,1.246,1.342
			C1399.063,128.907,1399.796,128.429,1399.86,127.756"/>
	</g>
	<g>
		<path fill="#231F20" d="M1383.452,132.547c-0.033-1.341,1.18-2.428,2.713-2.428c1.309-0.03,2.332,0.733,2.65,1.755l11.814-0.159
			l8.521-0.125l2.172-0.035l1.084-0.029h0.482h0.318h0.096c-0.16,0,0.605,0,0.764,0.384c0.193,0.349,0,0.827-0.479,0.957h-0.191
			l-0.254,0.064l-0.543,0.096l-1.023,0.159l-2.105,0.384l-33.588,5.648l-33.617,5.649l-16.793,2.877l-8.365,1.4l-4.213,0.703
			l-2.553,0.449l-1.313,0.189l-0.318,0.064l-0.16,0.035v-0.13v-0.573v-4.537v-2.139v-1.212c0.033-0.189-0.094-0.448,0.064-0.543
			l0.734-0.125l32.727-4.821l16.219-2.428l8.043-1.212l4.057-0.578l1.979-0.319l1.02-0.159l0.545-0.095h0.127h0.031l0,0
			c0.416,0.254-0.766-0.573,0.83,0.573l0,0l0.066,0.259v0.065l0.094,1.436l0.096,0.733v0.384c0.064,0.159-0.189,0.095-0.32,0.159
			l-56.316,9.607c-0.098,1.087-0.926,1.979-2.236,2.233c-1.469,0.26-2.967-0.638-3.256-1.944c-0.318-1.276,0.672-2.587,2.172-2.812
			c1.275-0.22,2.49,0.354,3.033,1.312l55.295-9.389c0.225,0,0.16-0.159,0.16-0.319l-0.033-0.508l-0.127-0.958v-0.159v-0.035
			c1.629,1.087,0.447,0.319,0.801,0.578h-0.035h-0.063h-0.098l-0.479,0.096l-1.084,0.159l-2.012,0.284l-3.992,0.578l-8.107,1.241
			l-16.154,2.363l-31.928,4.757l-0.416,0.064c-0.125,0.035-0.063,0.225-0.063,0.319v0.733v1.819v3.355
			c-0.221,0.703,0.639,0.254,1.117,0.254l1.598-0.254l4.213-0.703l8.396-1.471l16.762-2.807l33.588-5.685l33.615-5.684l2.078-0.318
			l1.021-0.225l0.541-0.095h0.289l0.064-0.03h0.029c-0.094-0.479,0.16,0.639,0.16,0.509c-0.029-0.479,0,0.673-0.029,0.543h-0.064
			h-0.096l-0.289,0.035h-0.512h-1.084l-2.109,0.03l-8.584,0.129l-11.752,0.189c-0.287,0.987-1.307,1.79-2.617,1.79
			C1384.759,134.971,1383.452,133.889,1383.452,132.547 M1317.173,144.548c-0.16-0.638-0.893-1.082-1.66-0.957
			c-0.703,0.13-1.213,0.768-1.117,1.406c0.16,0.703,0.928,1.087,1.66,0.957C1316.823,145.829,1317.302,145.187,1317.173,144.548"/>
	</g>
	<g>
		<path fill="#231F20" d="M1322.247,104.418c0.258-1.307,1.758-2.14,3.227-1.885c1.277,0.224,2.107,1.151,2.172,2.203l42.047,7.439
			l24.805,4.342l12.42,2.204l6.227,1.087l3.129,0.573l1.947,0.35c0.129,0.064,0.479-0.03,0.447,0.159v0.419v0.862v2.169v0.608
			c-0.096,0.189-0.354,0-0.48,0.06l-1.117-0.159l-56.605-7.374l-28.029-3.64l-14.049-1.82l-6.992-0.957l-3.51-0.443l-2.076-0.26
			l-1.084-0.159c-0.131,0-0.258,0-0.289-0.065v-0.189v-0.508v-6.422v-3.156v-1.885c0.031-0.578-0.287-1.535,0.768-1.087
			l64.713,11.622l31.957,5.749l16.027,2.871l4.502,0.798l0.287,0.065c0.098,0,0.127,0.029,0.098,0.064v0.06v0.13v0.254v0.573v1.95
			c1.146,0.254,2.074,1.182,2.074,2.269c0,1.341-1.246,2.423-2.811,2.423c-1.5,0-2.744-1.082-2.744-2.423
			c0-1.087,0.863-2.015,2.104-2.269v-1.406v-0.319v-0.159c-0.094,0,0.131-0.16-0.254-0.225l-3.574-0.604l-15.932-2.877
			l-32.055-5.743l-63.309-11.397c-0.576-0.225-0.381,0.349-0.479,0.668v1.152v2.901v5.684v0.289v0.13
			c0.098,0.06,0.127,0.03,0.127,0.03l0.703,0.095l1.436,0.194l3.512,0.443l7.023,0.928l14.049,1.819l27.998,3.64l55.617,7.249
			l0.67,0.095c0.096,0,0.287,0.065,0.287,0v-0.095v-0.897v-0.543c0-0.189,0.031-0.379-0.223-0.349l-1.182-0.189l-2.971-0.544
			l-6.258-1.087l-12.387-2.174l-24.807-4.372l-42.016-7.439c-0.572,0.958-1.754,1.565-3,1.342
			C1322.886,107.005,1321.899,105.729,1322.247,104.418 M1422.05,122.107c-0.734,0-1.34,0.543-1.34,1.182
			c0,0.668,0.605,1.211,1.34,1.211c0.799,0,1.436-0.543,1.436-1.211C1423.485,122.65,1422.849,122.107,1422.05,122.107"/>
	</g>
	<g>
		<path fill="#231F20" d="M1316.823,180.021c0-1.341,1.211-2.397,2.777-2.397c1.244,0,2.299,0.768,2.646,1.789h48.309h26.623h13.377
			h6.641h3.291h1.244h0.605c0.16-0.064,0.033-0.318,0.064-0.479v-6.706v-3.574v-1.501c-0.064-0.384,0.254-1.117-0.51-0.893
			l-115.639,0.03v14.688c1.215,0.283,2.109,1.181,2.109,2.263c0,1.342-1.279,2.458-2.779,2.458c-1.533,0-2.777-1.116-2.777-2.458
			c0-1.082,0.83-1.979,2.107-2.263v-15.87l118.033-0.064c1.275-0.319,0.732,0.832,0.859,1.5v2.109v3.574v7.599
			c-0.096,0.254,0.064,0.673-0.127,0.798h-1.023h-2.072h-3.387h-6.641h-13.377h-26.623h-48.309c-0.348,1.022-1.402,1.79-2.646,1.79
			C1318.034,182.415,1316.823,181.328,1316.823,180.021 M1305.583,182.061c-0.766,0-1.373,0.544-1.373,1.182
			c0,0.703,0.607,1.217,1.373,1.217s1.373-0.514,1.373-1.217C1306.956,182.604,1306.349,182.061,1305.583,182.061"/>
	</g>
	<g>
		<path fill="#231F20" d="M1423.04,185.7c0,1.312-1.182,2.398-2.713,2.398c-1.311,0-2.332-0.798-2.652-1.79h-49.961h-28.512h-14.24
			h-7.119h-3.639h-2.201h-0.576h-0.258c-0.127-0.029,0-0.159-0.063-0.254v-0.928v-5.364v-2.713v-1.53v-0.384
			c0.063-0.13,0.287-0.064,0.418-0.095h0.859h54.051h26.785h13.377h6.707h3.35h1.279h0.605c0.129,0,0.318,0.095,0.318,0v-0.289
			v-1.949v-0.923c-0.094-0.289,0.16-0.832-0.348-0.638h-91.248c-0.287,1.021-1.309,1.784-2.617,1.784
			c-1.533,0-2.744-1.082-2.744-2.423s1.211-2.428,2.744-2.428c1.309,0,2.33,0.798,2.617,1.819h92.395
			c0.861-0.225,0.416,0.668,0.543,1.087v1.561v3.066v0.514c0,0.125-0.287,0-0.445,0.06h-1.023h-2.076h-3.35h-6.707h-13.377h-26.785
			h-53.189h-0.51c-0.064,0-0.225-0.06-0.225,0v0.26v0.922v2.299v4.632v0.573c-0.029,0.095,0.033,0.13,0.16,0.095h0.352h1.34h3.48
			h7.119h14.24h28.512h49.961c0.32-1.022,1.342-1.82,2.652-1.82C1421.858,183.242,1423.04,184.329,1423.04,185.7 M1326.081,170.604
			c0-0.673-0.672-1.217-1.438-1.217c-0.703,0-1.373,0.544-1.373,1.217c0,0.639,0.67,1.212,1.373,1.212
			C1325.409,171.815,1326.081,171.242,1326.081,170.604"/>
	</g>
	<g>
		<path fill="#231F20" d="M1401.935,244.448c-1.529,0-2.807-1.117-2.807-2.458c0-1.117,0.893-2.045,2.107-2.299v-21.808v-13.377
			v-6.706v-3.32v-2.139v-0.509c0.063-0.159-0.098-0.414,0.221-0.354h1.182h12.23h5.938h3.127c1.086,0.1,3.002-0.414,2.428,1.121
			v27.741v13.695v6.836v3.415v2.074c-0.064,0.673,0.32,1.69-0.861,1.406l-120.363-0.13v-16.124c-1.18-0.254-2.139-1.182-2.139-2.328
			c0-1.342,1.277-2.428,2.811-2.428c1.596,0,2.873,1.086,2.873,2.428c0,1.146-0.926,2.074-2.107,2.328v14.942l117.873,0.064
			c0.701,0.189,0.479-0.448,0.508-0.827v-1.406v-3.415v-6.836v-13.695v-26.943c0.352-0.927-0.797-0.608-1.469-0.673h-2.68h-5.938
			h-11.367h-0.732c-0.16-0.03-0.131,0.095-0.131,0.194v0.319v1.241v3.32v6.706v13.377v21.808c1.182,0.254,2.139,1.182,2.139,2.299
			C1404.776,243.331,1403.501,244.448,1401.935,244.448 M1305.808,230.433c0.83,0,1.436-0.578,1.436-1.246
			c0-0.673-0.605-1.212-1.436-1.212c-0.736,0-1.404,0.539-1.404,1.212C1304.403,229.854,1305.071,230.433,1305.808,230.433"/>
	</g>
	<g>
		<path fill="#231F20" d="M1408.003,233.753c-1.566,0-2.809-1.087-2.809-2.428c0-1.182,0.924-2.074,2.105-2.363v-2.104v-14.529
			v-7.249v-3.64v-2.039v-1.151c0.096-0.319-0.191-0.958,0.449-0.769h6.318h2.939h1.756h0.924h0.447
			c0.193-0.06,0.035,0.195,0.098,0.319l-0.033,44.827h-3.799h-2.873c-0.318,1.052-1.404,1.85-2.715,1.85
			c-1.531,0-2.809-1.082-2.809-2.458c0-1.371,1.277-2.458,2.809-2.458c1.311,0,2.396,0.798,2.715,1.85h2.873h2.428l0.029-42.493
			c0.033-0.22-0.158-0.22-0.348-0.22h-0.576h-1.055h-2.811h-5.107c-0.352-0.064-0.191,0.319-0.225,0.479v0.668v1.596v3.64v7.249
			v14.529v2.104c1.182,0.289,2.076,1.182,2.076,2.363C1410.812,232.666,1409.599,233.753,1408.003,233.753 M1412.28,242.02
			c0-0.668-0.637-1.182-1.469-1.182c-0.734,0-1.373,0.514-1.373,1.182c0,0.703,0.639,1.247,1.373,1.247
			C1411.644,243.267,1412.28,242.723,1412.28,242.02"/>
	</g>
	<g>
		<path fill="#231F20" d="M1413.749,237.393c-1.533,0-2.809-1.087-2.809-2.428c0-1.151,0.926-2.109,2.139-2.328v-2.139v-21.329
			v-2.488c-1.213-0.289-2.139-1.217-2.139-2.363c0-1.341,1.275-2.428,2.809-2.428c1.598,0,2.842,1.087,2.842,2.428
			c0,1.146-0.924,2.074-2.139,2.363v2.488v21.329v2.139c1.215,0.219,2.139,1.177,2.139,2.328
			C1416.591,236.306,1415.347,237.393,1413.749,237.393 M1413.749,205.529c0.797,0,1.469-0.509,1.469-1.212
			c0-0.673-0.672-1.217-1.469-1.217s-1.373,0.544-1.373,1.217C1412.376,205.021,1412.952,205.529,1413.749,205.529"/>
	</g>
	<g>
		<path fill="#231F20" d="M1386.517,232.028c0,1.371-1.244,2.458-2.809,2.458c-1.342,0-2.363-0.798-2.684-1.82h-28.094h-17.688
			h-8.842h-4.408h-1.691h-0.447h-0.191c0,0,0,0.065,0,0.13v0.763v2.074v1.022c-0.127,0.225,0.287,0.1,0.416,0.159h0.574h37.672
			h19.027h9.484h4.756h2.744h1.5c0.066,0,0.258-0.095,0.258,0.035v0.349v0.608v3.286v1.725v0.449c0,0.129,0.098,0.384-0.098,0.289
			h-1.053h-41.887h-20.689h-10.406h-5.139h-2.779h-1.629h-0.83c-0.061,0-0.096,0-0.158,0v-0.16v-0.384v-8.62v-4.059v-2.198v-1.276
			c0.063-0.385-0.225-1.058,0.445-0.833h81.094c0.318-1.087,1.371-1.885,2.713-1.885c1.5,0,2.811,1.117,2.811,2.458
			c0,1.376-1.311,2.493-2.811,2.493c-1.342,0-2.395-0.833-2.713-1.854h-79.879c-0.416-0.125-0.258,0.259-0.258,0.479v0.798v1.819
			v4.059v7.599c0.066,0.095-0.158,0.413,0.16,0.349h0.416h0.957h2.461h5.139h10.406h20.689h40.992h0.545
			c0.191-0.03,0.096-0.319,0.096-0.443v-1.058v-2.233v-0.349c0-0.16,0-0.29-0.193-0.225h-0.893h-2.012h-4.756h-9.484h-19.027
			h-38.406h-0.957h-0.48c-0.096-0.035-0.223,0-0.223-0.035v-0.225v-1.625v-3.256v-1.182c0-0.095-0.064-0.254,0-0.289h0.35h0.674
			h2.711h4.408h8.842h17.688h28.094c0.32-1.052,1.342-1.85,2.684-1.85C1385.272,229.57,1386.517,230.688,1386.517,232.028
			 M1394.21,226.599c0,0.703,0.67,1.246,1.469,1.246c0.734,0,1.373-0.543,1.373-1.246c0-0.668-0.639-1.211-1.373-1.211
			C1394.88,225.388,1394.21,225.931,1394.21,226.599"/>
	</g>
	<g>
		<path fill="#231F20" d="M1305.583,75.654c1.5,0,2.779,1.053,2.779,2.394c0,1.117-0.895,2.01-2.109,2.299v3.988v3.58v1.4v0.703
			c0.193,0.064,0.512,0,0.768,0h58.105h29.309h14.656h7.309h3.672h1.5h0.701h0.354c0.096,0,0.029-0.159,0.029-0.254l-0.029-52.58
			h-15.805c-0.352,1.017-1.371,1.819-2.65,1.819c-1.533,0-2.777-1.121-2.777-2.428c0-1.341,1.244-2.428,2.777-2.428
			c1.279,0,2.299,0.832,2.65,1.819h17.146c0.189,19.255,0.029,35.629,0.063,54.884c-0.033,0.095,0.127,0.384-0.063,0.384h-0.576
			h-1.182h-2.139h-3.672h-7.309h-14.656h-29.309h-59.031c-0.385,0-0.893,0.06-1.182-0.064v-1.088v-2.168v-3.58v-3.988
			c-1.277-0.289-2.107-1.182-2.107-2.299C1302.806,76.707,1304.05,75.654,1305.583,75.654 M1405.575,36.576
			c0-0.673-0.639-1.212-1.404-1.212c-0.734,0-1.402,0.539-1.402,1.212c0,0.639,0.668,1.212,1.402,1.212
			C1404.937,37.788,1405.575,37.215,1405.575,36.576"/>
	</g>
	<g>
		<path fill="#231F20" d="M1399.956,40.919c1.533,0,2.748,1.082,2.748,2.423c0,1.122-0.893,2.044-2.074,2.299v11.94v6.771v3.386
			v1.979v1.082v0.259c0.029,0.095,0.029,0.189-0.131,0.125h-0.639h-12.449h-6.035h-3.033h-1.85
			c-0.576-0.065-1.598,0.319-1.311-0.509v-17.4v-8.461v-4.248v-1.979v-0.798v-0.384v-0.22c-0.031-0.035-0.16,0-0.189,0h-10.891
			h-5.746h-2.842c-0.67,0.03-1.594-0.13-2.012,0.095v28.604c1.182,0.289,2.078,1.216,2.078,2.298c0,1.342-1.244,2.429-2.811,2.429
			c-1.533,0-2.746-1.087-2.746-2.429c0-1.082,0.895-2.009,2.043-2.298V36.128c0.033-0.065,0-0.125,0.033-0.16h0.256h0.414h0.928
			h1.816h2.842h5.746h12.102c0.16,0.035,0.318-0.029,0.352,0.035v0.319v0.638v1.342v2.263v4.248v8.461v16.408
			c-0.16,0.479,0.445,0.26,0.797,0.319h1.119h2.904h6.035h11.398h0.35c0.191,0.035,0.031-0.189,0.064-0.254v-0.639v-1.371v-3.386
			v-6.771v-11.94c-1.182-0.255-2.045-1.177-2.045-2.299C1397.179,42.001,1398.425,40.919,1399.956,40.919 M1352.771,66.97
			c-0.732,0-1.373,0.543-1.373,1.211c0,0.674,0.641,1.217,1.373,1.217c0.799,0,1.406-0.543,1.406-1.217
			C1354.177,67.513,1353.569,66.97,1352.771,66.97"/>
	</g>
	<g>
		<path fill="#231F20" d="M1318.003,36.576c0-1.341,1.279-2.428,2.809-2.428c1.309,0,2.299,0.832,2.617,1.819h2.49h1.727h0.895
			c0.254,0.035,0.668-0.095,0.541,0.255v33.778h8.906h2.813c0.318-1.052,1.307-1.82,2.648-1.82c1.5,0,2.775,1.087,2.775,2.429
			c0,1.341-1.275,2.393-2.775,2.393c-1.342,0-2.33-0.763-2.648-1.819h-2.813h-10.248l-0.031-33.839
			c0.031-0.224-0.189-0.159-0.35-0.159h-0.543h-1.023h-2.363c-0.318,1.017-1.309,1.819-2.617,1.819
			C1319.282,39.004,1318.003,37.883,1318.003,36.576 M1342.011,70.609c0,0.638,0.672,1.211,1.438,1.211
			c0.797,0,1.373-0.573,1.373-1.211c0-0.668-0.576-1.212-1.373-1.212C1342.683,69.397,1342.011,69.941,1342.011,70.609"/>
	</g>
	<g>
		<path fill="#231F20" d="M1310.276,44.304c1.531,0,2.746,1.082,2.746,2.424c0,1.151-0.861,2.044-2.107,2.298v18.328v10.6v5.33
			v2.553v0.992v0.508h0.609h53.217h26.818h13.41h6.674h3.414h1.309h0.641h0.32c0.029,0,0.094,0,0.094,0v-0.189V47.046
			c-1.148-0.254-2.043-1.146-2.043-2.263c0-1.376,1.213-2.429,2.809-2.429c1.533,0,2.715,1.053,2.715,2.429
			c0,1.116-0.863,2.009-2.045,2.263v41.253v0.219c-0.029,0.035-0.158,0.035-0.285,0.035h-0.48h-1.053h-1.98h-3.414h-6.674h-13.41
			h-26.818h-54.209h-0.959c-0.029-0.254,0-0.578,0-0.833v-1.66v-2.776v-5.33v-10.6V49.025c-1.182-0.254-2.105-1.146-2.105-2.298
			C1307.468,45.386,1308.712,44.304,1310.276,44.304 M1418.187,45.965c0.734,0,1.373-0.514,1.373-1.182
			c0-0.674-0.639-1.217-1.373-1.217c-0.797,0-1.469,0.543-1.469,1.217C1416.718,45.451,1417.39,45.965,1418.187,45.965"/>
	</g>
	<g>
		<path fill="#231F20" d="M1360.528,45.451c1.566,0,2.777,1.087,2.777,2.428c0,1.082-0.863,1.979-2.107,2.233v2.109v13.536v6.736
			v3.415v1.914v1.053v0.513c0.063,0.225-0.318,0.065-0.416,0.16h-22.635h-10.949h-5.523h-2.811h-1.723h-0.832h-0.445
			c-0.063,0-0.127,0-0.223-0.03v-0.225V48.323v-2.459c-1.152-0.254-2.076-1.146-2.076-2.263c0-1.342,1.275-2.429,2.777-2.429
			c1.533,0,2.779,1.087,2.779,2.429c0,1.116-0.863,2.009-2.076,2.263v2.459v29.884c-0.063,0.189,0.256,0.065,0.381,0.095h0.514
			h1.051h2.684h5.523h10.949h21.391c0.098-0.029,0.32,0.035,0.32-0.064v-0.284v-0.638v-1.406v-3.415v-6.736V52.222v-2.109
			c-1.215-0.254-2.076-1.151-2.076-2.233C1357.782,46.538,1358.995,45.451,1360.528,45.451 M1316.343,44.813
			c0.799,0,1.373-0.573,1.373-1.211c0-0.674-0.574-1.217-1.373-1.217s-1.34,0.543-1.34,1.217
			C1315.003,44.239,1315.544,44.813,1316.343,44.813"/>
	</g>
	<g>
		<path fill="#231F20" d="M1409.091,45.451c1.529,0,2.775,1.087,2.775,2.428c0,1.082-0.895,1.979-2.076,2.233v2.109v13.536v6.736
			v3.385v1.944v1.022v0.543c0.033,0.16-0.063,0.16-0.158,0.16h-0.352h-21.52h-10.439h-5.268h-2.68h-1.66h-0.834h-0.414
			c-0.031-0.03-0.127,0-0.158-0.065v-0.189V49.28v-2.458c-1.213-0.284-2.139-1.182-2.139-2.299c0-1.306,1.275-2.393,2.809-2.393
			c1.563,0,2.777,1.087,2.777,2.393c0,1.117-0.895,2.015-2.107,2.299v2.458v28.927c-0.031,0.189,0.287,0.065,0.414,0.095h0.479
			h0.992h2.521h5.268h10.439h20.338c0.129-0.029,0.318,0.065,0.289-0.064v-0.349v-0.573v-1.437v-3.385v-6.736V52.222v-2.109
			c-1.215-0.254-2.078-1.151-2.078-2.233C1406.31,46.538,1407.589,45.451,1409.091,45.451 M1366.978,45.74
			c0.766,0,1.404-0.544,1.404-1.217c0-0.638-0.639-1.182-1.404-1.182c-0.734,0-1.373,0.544-1.373,1.182
			C1365.604,45.196,1366.243,45.74,1366.978,45.74"/>
	</g>
	<g>
		<path fill="#231F20" d="M1351.077,74.567c0,1.342-1.182,2.429-2.775,2.429c-1.244,0-2.332-0.769-2.65-1.854h-2.363h-10.311h-5.174
			h-2.584h-1.631h-0.828h-0.416c-0.098,0-0.352,0.064-0.225-0.065V56.181v-2.458c-1.213-0.26-2.105-1.182-2.105-2.299
			c0-1.312,1.246-2.398,2.746-2.398c1.564,0,2.809,1.087,2.809,2.398c0,1.117-0.926,2.039-2.074,2.299v2.458v17.719
			c0.479,0.125,1.211,0.03,1.818,0.095h2.49h5.174h10.311h2.363c0.318-1.087,1.406-1.819,2.65-1.819
			C1349.896,72.175,1351.077,73.227,1351.077,74.567 M1322.761,52.636c0.799,0,1.404-0.544,1.404-1.212
			c0-0.673-0.605-1.182-1.404-1.182c-0.768,0-1.34,0.509-1.34,1.182C1321.421,52.092,1321.993,52.636,1322.761,52.636"/>
	</g>
	<g>
		<path fill="#231F20" d="M1412.792,42.131c0,1.341-1.215,2.393-2.811,2.393c-1.246,0-2.297-0.763-2.648-1.785h-1.883
			c-0.289,0-0.703-0.095-0.578,0.284v15.616v8.076v4.054v2.139v1.276v0.639v0.319c-0.029,0.064-0.254,0-0.35,0.034
			c-12.291-0.034-21.326,0.095-33.619-0.1V58.479v-2.458c-1.182-0.289-2.105-1.151-2.105-2.298c0-1.312,1.309-2.398,2.777-2.398
			c1.598,0,2.809,1.087,2.809,2.398c0,1.146-0.893,2.009-2.105,2.298v2.458v15.421c1.627,0.125,4.723,0.03,7.34,0.095h8.113h15.578
			c0.031,0,0.158,0,0.158-0.064V73.74v-0.384v-0.738v-1.85v-4.054v-8.076V42.001v-0.319c0.033-0.06,0-0.125,0.033-0.159h0.191h0.766
			h2.875c0.352-1.018,1.402-1.82,2.648-1.82C1411.577,39.702,1412.792,40.789,1412.792,42.131 M1371.575,54.964
			c0.799,0,1.438-0.573,1.438-1.241c0-0.674-0.639-1.182-1.438-1.182c-0.701,0-1.342,0.508-1.342,1.182
			C1370.233,54.391,1370.874,54.964,1371.575,54.964"/>
	</g>
	<g>
		<path fill="#231F20" d="M1314.747,83.253c0-1.341,1.244-2.398,2.777-2.398c1.277,0,2.299,0.769,2.617,1.82h2.426h45.719h22.859
			h11.398h5.713h2.842c0.672-0.06,1.533,0.064,2.045-0.125V60.139v-2.428c-1.182-0.254-2.074-1.151-2.074-2.299
			c0-1.341,1.244-2.428,2.777-2.428c1.563,0,2.744,1.087,2.744,2.428c0,1.147-0.863,2.045-2.045,2.299v2.428v23.558
			c0.033,0.195-0.127,0.16-0.285,0.16h-0.479h-0.893h-1.758h-2.875h-5.713h-11.398h-22.859h-45.719h-2.426
			c-0.318,1.057-1.34,1.819-2.617,1.819C1315.991,85.676,1314.747,84.594,1314.747,83.253 M1413.847,56.624
			c0.732,0,1.402-0.573,1.402-1.212c0-0.673-0.67-1.211-1.402-1.211c-0.768,0-1.406,0.538-1.406,1.211
			C1412.44,56.051,1413.079,56.624,1413.847,56.624"/>
	</g>
	<g>
		<path fill="#231F20" d="M1305.296,72.494c-1.533,0-2.809-1.087-2.809-2.458c0-1.087,0.924-1.979,2.105-2.239v-2.104V35.968h1.502
			h3.256c0.256-0.987,1.311-1.819,2.555-1.819c1.598,0,2.842,1.087,2.842,2.428s-1.244,2.428-2.842,2.428
			c-1.244,0-2.299-0.803-2.555-1.819h-2.459h-0.924v28.509v2.104c1.213,0.26,2.105,1.152,2.105,2.239
			C1308.073,71.407,1306.862,72.494,1305.296,72.494 M1310.532,36.576c0,0.639,0.67,1.212,1.373,1.212
			c0.797,0,1.438-0.573,1.438-1.212c0-0.673-0.641-1.212-1.438-1.212C1311.202,35.364,1310.532,35.903,1310.532,36.576"/>
	</g>
	<g>
		<defs>
			<path id="SVGID_678_" d="M264.185,47.685c0-1.401,1.213-2.522,2.713-2.522c1.468,0,2.681,1.121,2.681,2.522
				c0,1.406-1.213,2.558-2.681,2.558C265.398,50.242,264.185,49.091,264.185,47.685 M261.503,47.685
				c0,2.812,2.394,5.075,5.396,5.075c2.458,0,4.501-1.625,5.077-3.799h32.628l0.127,211.576c0.319,0.992-0.479,0.957-1.276,0.893
				c-0.288,0-0.511,0-0.767,0h-3.257h-8.013h-14.909c-0.128,0-0.225,0-0.415,0c-0.288,0.034-0.575,0.064-0.671-0.095v-1.147v-2.298
				v-5.938v-12.26V215.36v-48.78V78.143c2.298-0.573,4.022-2.488,4.022-4.821c0-2.807-2.395-5.075-5.363-5.075
				c-2.969,0-5.331,2.269-5.331,5.075c0,2.333,1.691,4.248,3.99,4.821v88.438v48.78v24.331v12.26v6.128v3.834v1.914
				c0.224,0.225,0.67,0.189,1.118,0.16c0.223-0.035,0.511-0.035,0.702,0h16.857h8.013h4.629c0.352-0.035,0.799-0.035,1.245,0
				c1.341,0.064,2.619,0.159,2.108-1.536l-0.256-216.008h-35.182c-0.576-2.204-2.619-3.834-5.077-3.834
				C263.897,42.609,261.503,44.878,261.503,47.685"/>
		</defs>
		<use xlink:href="#SVGID_678_"  overflow="visible" fill="#231F20"/>
		<clipPath id="SVGID_6_">
			<use xlink:href="#SVGID_678_"  overflow="visible"/>
		</clipPath>
		<polygon clip-path="url(#SVGID_6_)" fill="#231F20" points="307.924,41.876 311.435,264.082 261.535,264.88 257.992,42.674 		"/>
	</g>
	<g>
		<defs>
			<path id="SVGID_680_" d="M292.343,82.615c0-1.406,1.213-2.558,2.683-2.558c1.468,0,2.681,1.151,2.681,2.558
				c0,1.4-1.213,2.553-2.681,2.553C293.556,85.168,292.343,84.016,292.343,82.615 M260.162,57.9v0.514v1.021v4.054v6.642v13.058
				v26.051v52.166v91.408c-2.266,0.574-3.99,2.458-3.99,4.816c0,2.813,2.394,5.11,5.331,5.11c2.969,0,5.396-2.298,5.396-5.11
				c0-2.358-1.756-4.242-4.055-4.816v-91.408v-52.166V83.188V70.131v-6.387V61.32v-0.608c-0.032-0.254,0-0.413,0.319-0.354h1.277
				h10.249h5.108h2.043h0.543c0.127,0.035,0.063,0.324,0.095,0.419v0.987v97.282v49.035v24.455v12.26v6.133v3.829v1.884
				c0.032,0.255-0.191,0.798,0.128,0.828h0.989h6.832h3.512c0.256-0.06,0.638-0.03,0.99-0.03c0.894,0.065,1.788,0.13,1.436-1.021
				V87.466c2.3-0.573,3.991-2.487,3.991-4.851c0-2.813-2.395-5.076-5.331-5.076c-2.969,0-5.396,2.264-5.396,5.076
				c0,2.363,1.756,4.277,4.055,4.851V254.31c0.192,0.673-0.352,0.644-0.862,0.578c-0.223,0-0.446,0-0.606,0h-2.108h-4.31h-0.575
				c-0.223,0-0.096-0.318-0.127-0.448v-1.146v-2.363v-6.133v-12.26v-24.455v-49.035V60.199v-1.661
				c-0.032-0.219,0.16-0.638-0.096-0.732h-0.894h-3.417h-6.001h-11.877h-2.139c-0.063,0-0.127,0-0.19,0c-0.032,0-0.065,0-0.128,0
				C260.257,57.806,260.194,57.806,260.162,57.9"/>
		</defs>
		<use xlink:href="#SVGID_680_"  overflow="visible" fill="#231F20"/>
		<clipPath id="SVGID_8_">
			<use xlink:href="#SVGID_680_"  overflow="visible"/>
		</clipPath>
		<polygon clip-path="url(#SVGID_8_)" fill="#231F20" points="300.357,57.138 303.645,262.676 256.172,263.443 252.882,57.87 		"/>
	</g>
	<g>
		<defs>
			<path id="SVGID_682_" d="M187.434,71.437c-1.341-0.349-2.106-1.785-1.756-3.221c0.384-1.436,1.819-2.299,3.193-1.914
				c1.34,0.349,2.139,1.819,1.787,3.256c-0.352,1.211-1.372,1.979-2.554,1.979C187.913,71.536,187.69,71.502,187.434,71.437
				 M183.22,67.543c-0.638,2.398,0.447,4.727,2.362,5.908l-34,114.837l1.341,4.597l35.149-118.766c2.268,0,4.439-1.501,5.044-3.894
				c0.799-2.872-0.83-5.809-3.575-6.512c-0.384-0.13-0.83-0.194-1.245-0.194C185.997,63.52,183.794,65.149,183.22,67.543"/>
		</defs>
		<use xlink:href="#SVGID_682_"  overflow="visible" fill="#231F20"/>
		<clipPath id="SVGID_9_">
			<use xlink:href="#SVGID_682_"  overflow="visible"/>
		</clipPath>
		<polygon clip-path="url(#SVGID_9_)" fill="#231F20" points="191.33,202.977 120.804,185.127 154.103,53.498 224.628,71.313 		"/>
	</g>
	<g>
		<defs>
			<path id="SVGID_684_" d="M173.738,208.017c-2.267,0.065-4.374,1.501-5.044,3.964c-0.767,2.807,0.83,5.743,3.607,6.446
				c2.713,0.769,5.555-0.957,6.353-3.799c0.607-2.394-0.479-4.757-2.458-5.938l55.551-162.217l-3.161-1.021L173.738,208.017z"/>
		</defs>
		<use xlink:href="#SVGID_684_"  overflow="visible" fill="#231F20"/>
		<clipPath id="SVGID_11_">
			<use xlink:href="#SVGID_684_"  overflow="visible"/>
		</clipPath>
		<polygon clip-path="url(#SVGID_11_)" fill="#231F20" points="171.79,30.284 273.029,55.861 227.916,234.356 126.646,208.784 		"/>
	</g>
	<g>
		<defs>
			<path id="SVGID_686_" d="M177.059,174.527c-1.438-0.384-2.204-1.819-1.853-3.226c0.415-1.466,1.853-2.299,3.192-1.944
				c1.405,0.384,2.204,1.85,1.756,3.285c-0.255,1.182-1.341,1.979-2.49,1.979C177.441,174.622,177.25,174.592,177.059,174.527
				 M172.749,170.634c-0.607,2.363,0.446,4.727,2.395,5.908l-13.186,35.438l1.341,4.656l14.366-39.457
				c2.268,0,4.374-1.471,5.044-3.894c0.734-2.842-0.83-5.749-3.607-6.517c-0.384-0.125-0.862-0.189-1.277-0.189
				C175.526,166.58,173.419,168.205,172.749,170.634"/>
		</defs>
		<use xlink:href="#SVGID_686_"  overflow="visible" fill="#231F20"/>
		<clipPath id="SVGID_12_">
			<use xlink:href="#SVGID_686_"  overflow="visible"/>
		</clipPath>
		<polygon clip-path="url(#SVGID_12_)" fill="#231F20" points="182.134,221.747 150.081,213.605 163.266,161.505 195.352,169.611 		
			"/>
	</g>
	<g>
		<defs>
			<path id="SVGID_688_" d="M191.808,133.31c-1.405-0.283-2.266-1.72-1.979-3.16c0.319-1.437,1.693-2.394,3.098-2.074
				c1.372,0.254,2.266,1.66,1.914,3.131c-0.223,1.276-1.34,2.169-2.554,2.169C192.127,133.375,191.967,133.345,191.808,133.31
				 M192.127,125.428c-2.266,0.159-4.278,1.755-4.789,4.213c-0.638,2.906,1.085,5.714,3.927,6.287
				c2.746,0.578,5.491-1.307,6.098-4.213c0.542-2.423-0.703-4.727-2.713-5.744l27.073-80.649l-3.575-0.284L192.127,125.428z"/>
		</defs>
		<use xlink:href="#SVGID_688_"  overflow="visible" fill="#231F20"/>
		<clipPath id="SVGID_14_">
			<use xlink:href="#SVGID_688_"  overflow="visible"/>
		</clipPath>
		<polygon clip-path="url(#SVGID_14_)" fill="#231F20" points="187.977,38.461 238.771,48.323 220.414,143.018 169.651,133.186 		
			"/>
	</g>
	<g>
		<defs>
			<path id="SVGID_690_" d="M390.389,42.001c0-1.466,1.085-2.713,2.522-2.713c1.436,0,2.618,1.247,2.618,2.713
				c0,1.471-1.182,2.682-2.618,2.682C391.474,44.683,390.389,43.472,390.389,42.001 M387.771,42.001c0,2.972,2.331,5.364,5.14,5.364
				c2.362,0,4.278-1.725,4.916-4.023h27.841c0,0,25.668,2.299,44.76,19.923l2.139-1.595c-21.582-19.475-46.771-21.005-46.771-21.005
				h-27.968c-0.638-2.304-2.554-4.024-4.916-4.024C390.102,36.641,387.771,39.034,387.771,42.001"/>
		</defs>
		<use xlink:href="#SVGID_690_"  overflow="visible" fill="#231F20"/>
		<clipPath id="SVGID_15_">
			<use xlink:href="#SVGID_690_"  overflow="visible"/>
		</clipPath>
		<polygon clip-path="url(#SVGID_15_)" fill="#231F20" points="387.356,36.641 472.566,35.3 472.981,63.235 387.803,64.606 		"/>
	</g>
	<g>
		<defs>
			<path id="SVGID_692_" d="M39.105,45.864c-0.319-1.371,0.479-2.807,1.948-3.19c1.469-0.349,2.904,0.448,3.288,1.819
				c0.319,1.371-0.543,2.808-1.979,3.191c-0.225,0.035-0.479,0.064-0.703,0.064C40.479,47.749,39.424,47.017,39.105,45.864
				 M40.383,40.216c-2.331,0.608-3.991,2.712-3.991,5.011v0.095c0,0.419,0.033,0.803,0.16,1.217c0.703,2.742,3.64,4.372,6.481,3.64
				c2.426-0.639,3.895-2.777,3.926-5.046l41.855,0.254l64.618,216.078l-30.841,0.16c-0.35,0.029-0.83,0.318-1.053,0.159
				l-0.319-1.087l-0.575-2.264l-1.533-5.843l-3.16-11.941l-7.663-23.852l-15.995-48.876l-28.159-87.64
				c2.044-1.116,3.257-3.415,2.682-5.714c-0.767-2.747-3.64-4.372-6.545-3.64c-2.841,0.769-4.566,3.575-3.832,6.353
				c0.607,2.269,2.778,3.739,5.077,3.674l28.191,87.635l15.963,48.911l7.694,23.852l3.128,11.906l1.597,6.032l0.99,3.77l0.479,1.85
				c0.415,0.26,1.245-0.219,1.82-0.319l32.724-0.638l2.906,0.064L90.667,42.226l-44.346,0.418c-0.926-1.6-2.65-2.622-4.565-2.622
				C41.309,40.021,40.861,40.086,40.383,40.216"/>
		</defs>
		<use xlink:href="#SVGID_692_"  overflow="visible" fill="#231F20"/>
		<clipPath id="SVGID_17_">
			<use xlink:href="#SVGID_692_"  overflow="visible"/>
		</clipPath>
		<polygon clip-path="url(#SVGID_17_)" fill="#231F20" points="148.293,8.706 215.498,248.82 45.139,296.484 -22.098,56.37 		"/>
	</g>
	<g>
		<defs>
			<path id="SVGID_694_" d="M177.728,53.723c-0.797,2.263,0.192,4.626,2.171,5.902l-32.468,114.104l1.724,3.734l33.268-116.946
				c2.331,0.194,4.629-1.052,5.363-3.315c0.958-2.652-0.543-5.619-3.353-6.581c-0.638-0.189-1.18-0.319-1.82-0.319
				C180.443,50.302,178.399,51.613,177.728,53.723 M189.957,43.791c-1.437-0.509-2.204-1.979-1.725-3.321
				c0.48-1.341,1.979-2.044,3.384-1.53c1.374,0.479,2.171,1.979,1.725,3.286c-0.415,1.057-1.405,1.694-2.491,1.694
				C190.532,43.92,190.211,43.886,189.957,43.791 M185.678,39.607c-0.925,2.652,0.574,5.619,3.384,6.611
				c2.363,0.827,4.758-0.095,6.099-1.979l42.014,2.583l-65.416,196.573l-11.558-41.73l45.208-141.147
				c2.33,0.194,4.629-1.052,5.395-3.315c0.926-2.652-0.606-5.619-3.384-6.581c-2.809-0.987-5.81,0.419-6.735,3.102
				c-0.767,2.263,0.223,4.626,2.202,5.902L156.242,201.76l15.006,53.288l69.247-209.821l-44.473-3.415
				c0.128-2.299-1.245-4.502-3.607-5.33c-0.575-0.194-1.214-0.289-1.789-0.289C188.424,36.192,186.412,37.504,185.678,39.607"/>
		</defs>
		<use xlink:href="#SVGID_694_"  overflow="visible" fill="#231F20"/>
		<clipPath id="SVGID_18_">
			<use xlink:href="#SVGID_694_"  overflow="visible"/>
		</clipPath>
		<polygon clip-path="url(#SVGID_18_)" fill="#231F20" points="305.37,57.457 231.429,282.629 82.558,233.753 156.498,8.576 		"/>
	</g>
	<g>
		<defs>
			<path id="SVGID_696_" d="M81.216,73.994c-0.511-1.376,0.319-2.877,1.691-3.32c1.405-0.448,2.938,0.319,3.384,1.69
				c0.415,1.406-0.319,2.937-1.755,3.385c-0.288,0.095-0.511,0.13-0.83,0.13C82.588,75.879,81.535,75.142,81.216,73.994
				 M66.275,51.519l-0.799,0.254l-3.32,1.087l-5.715,1.82l-11.302,3.604l-2.075,0.639c-0.096,0.1-0.383,0.1-0.383,0.194l0.16,0.508
				l0.288,1.058l1.34,4.053l2.075,6.642l4.183,13.022l8.333,25.991l16.665,51.977l29.149,91.21
				c-2.012,1.246-3.034,3.704-2.267,6.032c0.894,2.782,3.895,4.343,6.705,3.45c2.842-0.893,4.374-3.929,3.48-6.735
				c-0.767-2.334-2.969-3.67-5.332-3.575l-29.212-91.185l-16.666-52.007l-8.333-25.985L49.13,70.544l-2.012-6.387l-0.798-2.393
				l-0.192-0.604c-0.127-0.26-0.16-0.419,0.192-0.449l1.182-0.384l9.769-3.126l4.821-1.535l1.979-0.668l0.511-0.13
				c0.127,0,0.127,0.289,0.223,0.414l0.319,0.957l31.033,96.993l15.644,48.91l7.822,24.455l3.927,12.23l1.947,6.098l1.182,3.764
				l0.638,1.92c0.16,0.254,0.096,0.827,0.384,0.763l0.957-0.319l6.513-2.039l3.321-1.087c0.926-0.514,2.969-0.319,1.979-1.79
				L86.547,77.599c2.012-1.241,3.065-3.669,2.3-6.032c-0.895-2.807-3.928-4.343-6.737-3.445c-2.81,0.893-4.374,3.924-3.48,6.701
				c0.767,2.363,2.969,3.704,5.396,3.609l53.253,166.4c0.542,0.862-0.671,0.798-1.214,1.052l-1.979,0.638L130,247.863l-0.607,0.189
				c-0.192,0.034-0.16-0.319-0.223-0.444l-0.384-1.151l-0.734-2.328l-1.979-6.133l-3.895-12.225l-7.821-24.456l-15.644-48.91
				L67.136,53.847l-0.511-1.66C66.529,51.997,66.529,51.519,66.275,51.519L66.275,51.519"/>
		</defs>
		<use xlink:href="#SVGID_696_"  overflow="visible" fill="#231F20"/>
		<clipPath id="SVGID_20_">
			<use xlink:href="#SVGID_696_"  overflow="visible"/>
		</clipPath>
		<polygon clip-path="url(#SVGID_20_)" fill="#231F20" points="131.372,21.504 205.759,242.244 52.77,293.967 -21.618,73.257 		"/>
	</g>
	<g>
		<defs>
			<path id="SVGID_698_" d="M335.093,41.781c0-1.436,1.245-2.588,2.777-2.588c1.533,0,2.746,1.152,2.746,2.588
				c0,1.437-1.213,2.618-2.746,2.618C336.338,44.399,335.093,43.218,335.093,41.781 M332.347,41.781c0,2.901,2.49,5.235,5.523,5.235
				c2.523,0,4.629-1.695,5.236-3.929h33.587l0.127,217.354c0.384,1.021-0.446,0.987-1.245,0.927c-0.287-0.034-0.638-0.034-0.83,0
				h-3.448h-8.141h-15.357c-0.16-0.034-0.319-0.034-0.479,0c-0.255,0.03-0.511,0.03-0.702-0.1v-1.177v-2.363v-6.162v-12.484V214.02
				v-50.057V73.097c2.425-0.603,4.182-2.553,4.182-4.976c0-2.906-2.49-5.205-5.523-5.205c-3.065,0-5.492,2.299-5.492,5.205
				c0,2.423,1.756,4.373,4.118,4.976v90.866v50.057v25.063v12.484v6.382v3.898v1.979c0.224,0.225,0.67,0.189,1.182,0.16
				c0.223-0.035,0.479-0.035,0.67,0h17.4h8.141h4.789c0.448-0.035,0.894-0.035,1.405,0c1.309,0.095,2.65,0.159,2.076-1.596
				L379.374,40.47h-36.268c-0.607-2.233-2.713-3.894-5.236-3.894C334.837,36.576,332.347,38.904,332.347,41.781"/>
		</defs>
		<use xlink:href="#SVGID_698_"  overflow="visible" fill="#231F20"/>
		<clipPath id="SVGID_21_">
			<use xlink:href="#SVGID_698_"  overflow="visible"/>
		</clipPath>
		<polygon clip-path="url(#SVGID_21_)" fill="#231F20" points="380.14,35.809 383.78,264.082 332.347,264.88 328.707,36.606 		"/>
	</g>
	<g>
		<defs>
			<path id="SVGID_700_" d="M364.081,77.664c0-1.437,1.245-2.588,2.715-2.588c1.595,0,2.777,1.151,2.777,2.588
				c0,1.436-1.182,2.588-2.777,2.588C365.326,80.252,364.081,79.1,364.081,77.664 M330.911,52.222v0.538v1.058v4.213v6.83v13.377
				v26.788v53.572v93.893c-2.331,0.607-4.087,2.558-4.087,4.98c0,2.877,2.49,5.205,5.523,5.205c3.034,0,5.523-2.328,5.523-5.205
				c0-2.423-1.787-4.373-4.182-4.98v-93.893v-53.572V78.237V64.86v-6.576v-2.488v-0.638c0-0.259,0-0.419,0.352-0.354h1.309h10.6
				h5.172h2.171h0.542c0.096,0.035,0,0.319,0.032,0.449v0.987v99.93v50.352v25.188v12.579v6.322v3.863v1.979
				c0.063,0.255-0.16,0.828,0.16,0.828h1.053h7.056h3.607c0.288-0.065,0.671-0.03,1.022,0c0.894,0.064,1.852,0.095,1.468-1.052
				V82.615c2.331-0.579,4.118-2.523,4.118-4.951c0-2.907-2.426-5.235-5.554-5.235c-3.001,0-5.492,2.328-5.492,5.235
				c0,2.428,1.787,4.372,4.15,4.951v171.44c0.223,0.703-0.288,0.638-0.862,0.607c-0.223-0.029-0.479-0.029-0.638,0h-2.139h-4.47
				h-0.638c-0.159-0.029-0.032-0.354-0.064-0.479v-1.211v-2.363v-6.322v-12.579v-25.188V156.17V54.58v-1.66
				c-0.064-0.255,0.096-0.698-0.095-0.733h-0.895h-3.575h-6.13h-12.292h-2.202c0,0-0.096,0-0.192,0c0,0-0.063,0-0.16,0
				C331.038,52.187,331.005,52.187,330.911,52.222"/>
		</defs>
		<use xlink:href="#SVGID_700_"  overflow="visible" fill="#231F20"/>
		<clipPath id="SVGID_23_">
			<use xlink:href="#SVGID_700_"  overflow="visible"/>
		</clipPath>
		<polygon clip-path="url(#SVGID_23_)" fill="#231F20" points="372.35,51.454 375.703,262.646 326.824,263.408 323.472,52.222 		"/>
	</g>
	<g>
		<defs>
			<path id="SVGID_702_" d="M1163.417,35.105c0-1.401,1.213-2.553,2.713-2.553s2.682,1.151,2.682,2.553
				c0,1.436-1.182,2.588-2.682,2.588S1163.417,36.541,1163.417,35.105 M1160.767,35.105c0,2.877,2.426,5.175,5.363,5.175
				c2.49,0,4.469-1.66,5.045-3.898h32.66l0.063,214.034c0.352,1.021-0.383,0.992-1.18,0.927c-0.287,0-0.543-0.029-0.799,0h-3.32
				h-7.918h-14.941c-0.127,0-0.254,0-0.414,0c-0.256,0.03-0.574,0.065-0.672-0.095v-1.151v-2.299v-6.063v-12.324v-24.68v-49.324
				v-89.46c2.299-0.573,4.023-2.487,4.023-4.916c0-2.812-2.395-5.11-5.332-5.11c-3,0-5.363,2.299-5.363,5.11
				c0,2.429,1.725,4.343,3.992,4.916v89.46v49.324v24.68v12.324v6.258v3.828v1.915c0.189,0.254,0.668,0.225,1.117,0.194
				c0.254,0,0.51,0,0.701,0h16.889h7.918h4.629c0.447-0.064,0.863,0,1.342,0c1.277,0.06,2.586,0.159,2.012-1.535l-0.16-218.566
				h-35.246c-0.576-2.169-2.555-3.829-5.045-3.829C1163.192,30,1160.767,32.299,1160.767,35.105"/>
		</defs>
		<use xlink:href="#SVGID_702_"  overflow="visible" fill="#231F20"/>
		<clipPath id="SVGID_24_">
			<use xlink:href="#SVGID_702_"  overflow="visible"/>
		</clipPath>
		<polygon clip-path="url(#SVGID_24_)" fill="#231F20" points="1207.155,29.232 1210.698,253.99 1160.767,254.823 1157.19,30.03 		
			"/>
	</g>
	<g>
		<defs>
			<path id="SVGID_704_" d="M1191.511,70.449c0-1.436,1.277-2.553,2.715-2.553c1.5,0,2.682,1.117,2.682,2.553
				c0,1.406-1.182,2.588-2.682,2.588C1192.788,73.037,1191.511,71.855,1191.511,70.449 M1159.425,45.421v0.544v1.017V51.1v6.706
				v13.188v26.399v52.744v92.456c-2.299,0.608-4.021,2.523-4.021,4.921c0,2.837,2.395,5.141,5.363,5.141
				c2.938,0,5.363-2.304,5.363-5.141c0-2.397-1.756-4.313-4.055-4.921v-92.456V97.393V70.993V57.806v-6.446v-2.458v-0.608
				c-0.031-0.225,0-0.414,0.287-0.35h1.309h10.25h5.107h2.043h0.543c0.127,0.03,0.064,0.319,0.064,0.444v0.992v98.364v49.613v24.774
				v12.385v6.227v3.829v1.949c0.063,0.255-0.127,0.769,0.158,0.798h0.99h6.834h3.51c0.289-0.029,0.639-0.029,0.99,0
				c0.895,0.065,1.789,0.095,1.438-1.052V75.336c2.266-0.579,3.99-2.493,3.99-4.887c0-2.842-2.363-5.14-5.363-5.14
				c-2.938,0-5.332,2.298-5.332,5.14c0,2.394,1.725,4.308,4.021,4.887v168.793c0.193,0.668-0.318,0.668-0.893,0.603
				c-0.191,0-0.383,0-0.574,0h-2.109h-4.309h-0.605c-0.16,0-0.033-0.318-0.064-0.508v-1.117v-2.363v-6.227v-12.385v-24.774v-49.613
				V47.749v-1.66c-0.033-0.225,0.127-0.638-0.129-0.703h-0.861h-3.449h-6h-11.91h-2.139c-0.031,0-0.127,0-0.127,0
				c-0.064,0-0.127,0-0.127,0C1159.521,45.386,1159.458,45.386,1159.425,45.421"/>
		</defs>
		<use xlink:href="#SVGID_704_"  overflow="visible" fill="#231F20"/>
		<clipPath id="SVGID_26_">
			<use xlink:href="#SVGID_704_"  overflow="visible"/>
		</clipPath>
		<polygon clip-path="url(#SVGID_26_)" fill="#231F20" points="1199.589,44.683 1202.909,252.59 1155.403,253.353 1152.114,45.421 
					"/>
	</g>
	<g>
		<defs>
			<path id="SVGID_706_" d="M1212.647,242.912c0-1.501,1.18-2.678,2.584-2.678c1.406,0,2.555,1.177,2.555,2.678
				s-1.148,2.718-2.555,2.718C1213.827,245.63,1212.647,244.413,1212.647,242.912 M1213.956,202.622v35.215
				c-2.268,0.608-3.832,2.617-3.832,5.075c0,2.972,2.234,5.364,5.107,5.364c2.842,0,5.174-2.393,5.174-5.364
				c0-2.458-1.693-4.467-3.896-5.075V205.21l55.01,0.064v-2.877L1213.956,202.622z"/>
		</defs>
		<use xlink:href="#SVGID_706_"  overflow="visible" fill="#231F20"/>
		<clipPath id="SVGID_27_">
			<use xlink:href="#SVGID_706_"  overflow="visible"/>
		</clipPath>
		<polygon clip-path="url(#SVGID_27_)" fill="#231F20" points="1209.358,202.463 1271.454,201.44 1272.188,248.276 
			1210.124,249.269 		"/>
	</g>
	<g>
		<defs>
			<path id="SVGID_708_" d="M1276.308,205.658c0-1.471,1.148-2.682,2.555-2.682c1.404,0,2.553,1.211,2.553,2.682
				c0,1.501-1.148,2.683-2.553,2.683C1277.456,208.341,1276.308,207.159,1276.308,205.658 M1273.688,205.658
				c0,2.488,1.693,4.503,3.896,5.105v39.781l-57.82-0.064v2.872l60.373-0.189v-42.399c2.234-0.603,3.832-2.617,3.832-5.105
				c0-2.937-2.299-5.335-5.107-5.335C1275.987,200.323,1273.688,202.722,1273.688,205.658"/>
		</defs>
		<use xlink:href="#SVGID_708_"  overflow="visible" fill="#231F20"/>
		<clipPath id="SVGID_29_">
			<use xlink:href="#SVGID_708_"  overflow="visible"/>
		</clipPath>
		<polygon clip-path="url(#SVGID_29_)" fill="#231F20" points="1284.864,253.353 1219.765,254.374 1218.903,200.323 
			1283.97,199.271 		"/>
	</g>
	<g>
		<defs>
			<path id="SVGID_710_" d="M1231.005,225.961c0-1.406,1.213-2.553,2.682-2.553c1.5,0,2.713,1.146,2.713,2.553
				c0,1.405-1.213,2.553-2.713,2.553C1232.218,228.514,1231.005,227.366,1231.005,225.961 M1228.354,225.961
				c0,2.876,2.361,5.14,5.332,5.14c2.49,0,4.469-1.625,5.107-3.863h32.852v-2.618l-32.852,0.065
				c-0.639-2.204-2.617-3.829-5.107-3.829C1230.716,220.855,1228.354,223.153,1228.354,225.961"/>
		</defs>
		<use xlink:href="#SVGID_710_"  overflow="visible" fill="#231F20"/>
		<clipPath id="SVGID_30_">
			<use xlink:href="#SVGID_710_"  overflow="visible"/>
		</clipPath>
		<polygon clip-path="url(#SVGID_30_)" fill="#231F20" points="1271.646,220.152 1271.806,231.101 1228.354,231.804 
			1228.163,220.855 		"/>
	</g>
	<g>
		<defs>
			<path id="SVGID_712_" d="M405.011,54.645h-27.488v2.683h27.807c0.703,1.725,2.427,2.937,4.406,2.937
				c2.682,0,4.821-2.169,4.821-4.852c0-2.652-2.139-4.821-4.821-4.821C407.341,50.591,405.362,52.347,405.011,54.645"/>
		</defs>
		<use xlink:href="#SVGID_712_"  overflow="visible" fill="#231F20"/>
		<clipPath id="SVGID_32_">
			<use xlink:href="#SVGID_712_"  overflow="visible"/>
		</clipPath>
		<polygon clip-path="url(#SVGID_32_)" fill="#231F20" points="414.557,50.018 414.749,60.264 377.523,60.842 377.395,50.621 		"/>
	</g>
	<g>
		<defs>
			<path id="SVGID_714_" d="M405.011,92.287h-27.488v2.712h27.807c0.703,1.661,2.427,2.907,4.406,2.907
				c2.682,0,4.821-2.169,4.821-4.821c0-2.683-2.139-4.852-4.821-4.852C407.341,88.233,405.362,89.989,405.011,92.287"/>
		</defs>
		<use xlink:href="#SVGID_714_"  overflow="visible" fill="#231F20"/>
		<clipPath id="SVGID_34_">
			<use xlink:href="#SVGID_714_"  overflow="visible"/>
		</clipPath>
		<polygon clip-path="url(#SVGID_34_)" fill="#231F20" points="414.557,87.655 414.749,97.906 377.523,98.479 377.395,88.233 		"/>
	</g>
	<g>
		<defs>
			<path id="SVGID_716_" d="M614.51,94.107c0-1.276,1.149-2.334,2.618-2.334s2.65,1.058,2.65,2.334s-1.182,2.363-2.65,2.363
				S614.51,95.384,614.51,94.107 M656.876,92.896H631.91v0.06h-9.802c-0.639-2.009-2.586-3.51-4.98-3.51
				c-2.938,0-5.268,2.109-5.268,4.662c0,2.617,2.33,4.691,5.268,4.691c2.395,0,4.342-1.501,4.98-3.545h9.802v0.064h25.253
				c0.67,1.565,2.234,2.683,4.023,2.683c2.426,0,4.374-1.979,4.374-4.407c0-2.423-1.948-4.373-4.374-4.373
				C659.015,89.221,657.228,90.786,656.876,92.896"/>
		</defs>
		<use xlink:href="#SVGID_716_"  overflow="visible" fill="#231F20"/>
		<clipPath id="SVGID_36_">
			<use xlink:href="#SVGID_716_"  overflow="visible"/>
		</clipPath>
		<polygon clip-path="url(#SVGID_36_)" fill="#231F20" points="665.561,88.358 665.753,98.799 611.86,99.661 611.733,89.221 		"/>
	</g>
	<g>
		<defs>
			<path id="SVGID_718_" d="M528.31,72.843h-27.52v0.064v2.553v0.065h27.839c0.703,1.725,2.427,2.937,4.406,2.937
				c2.65,0,4.789-2.169,4.789-4.852s-2.139-4.851-4.789-4.851C530.672,68.76,528.661,70.544,528.31,72.843"/>
		</defs>
		<use xlink:href="#SVGID_718_"  overflow="visible" fill="#231F20"/>
		<clipPath id="SVGID_38_">
			<use xlink:href="#SVGID_718_"  overflow="visible"/>
		</clipPath>
		<polygon clip-path="url(#SVGID_38_)" fill="#231F20" points="537.824,68.181 538.079,78.462 500.79,79.04 500.693,68.76 		"/>
	</g>
	<g>
		<defs>
			<path id="SVGID_720_" d="M560.108,166.899c0,2.807,2.043,5.14,4.757,5.554v91.563h0.063h3.002h0.096v-91.883
				c1.979-0.892,3.447-2.871,3.447-5.234c0-3.131-2.586-5.684-5.715-5.684C562.599,161.216,560.108,163.769,560.108,166.899"/>
		</defs>
		<use xlink:href="#SVGID_720_"  overflow="visible" fill="#231F20"/>
		<clipPath id="SVGID_39_">
			<use xlink:href="#SVGID_720_"  overflow="visible"/>
		</clipPath>
		<polygon clip-path="url(#SVGID_39_)" fill="#231F20" points="558.447,161.245 571.474,161.026 573.071,263.987 560.108,264.177 		
			"/>
	</g>
	<g>
		<defs>
			<path id="SVGID_722_" d="M589.065,150.84c0,2.808,2.074,5.141,4.758,5.584v91.534h0.063h3.065h0.063v-91.913
				c1.979-0.862,3.416-2.877,3.416-5.205c0-3.161-2.553-5.684-5.715-5.684C591.651,145.156,589.065,147.679,589.065,150.84"/>
		</defs>
		<use xlink:href="#SVGID_722_"  overflow="visible" fill="#231F20"/>
		<clipPath id="SVGID_41_">
			<use xlink:href="#SVGID_722_"  overflow="visible"/>
		</clipPath>
		<polygon clip-path="url(#SVGID_41_)" fill="#231F20" points="587.437,145.187 600.431,144.967 602.06,247.928 589.065,248.152 		
			"/>
	</g>
	<g>
		<defs>
			<path id="SVGID_724_" d="M513.592,63.903c0-1.466,1.245-2.617,2.873-2.617c1.597,0,2.905,1.151,2.905,2.617
				c0,1.406-1.309,2.558-2.905,2.558C514.837,66.461,513.592,65.31,513.592,63.903 M510.974,62.563h-10.792v-0.061v2.713v-0.065
				h10.792c0.671,2.204,2.81,3.864,5.491,3.864c3.193,0,5.778-2.299,5.778-5.11c0-2.872-2.585-5.17-5.778-5.17
				C513.784,58.733,511.645,60.394,510.974,62.563"/>
		</defs>
		<use xlink:href="#SVGID_724_"  overflow="visible" fill="#231F20"/>
		<clipPath id="SVGID_42_">
			<use xlink:href="#SVGID_724_"  overflow="visible"/>
		</clipPath>
		<polygon clip-path="url(#SVGID_42_)" fill="#231F20" points="500.183,69.362 500.023,58.733 522.212,58.349 522.403,69.014 		"/>
	</g>
	<g>
		<defs>
			<path id="SVGID_726_" d="M640.69,63.903c0-1.466,1.309-2.617,2.873-2.617c1.596,0,2.905,1.151,2.905,2.617
				c0,1.406-1.31,2.558-2.905,2.558C641.999,66.461,640.69,65.31,640.69,63.903 M638.04,62.563h-10.76l-5.618-0.061v2.713
				l5.618-0.065h10.76c0.734,2.204,2.906,3.864,5.523,3.864c3.191,0,5.811-2.299,5.811-5.11c0-2.872-2.619-5.17-5.811-5.17
				C640.946,58.733,638.774,60.394,638.04,62.563"/>
		</defs>
		<use xlink:href="#SVGID_726_"  overflow="visible" fill="#231F20"/>
		<clipPath id="SVGID_44_">
			<use xlink:href="#SVGID_726_"  overflow="visible"/>
		</clipPath>
		<polygon clip-path="url(#SVGID_44_)" fill="#231F20" points="621.692,69.457 621.503,58.733 649.374,58.284 649.534,69.014 		"/>
	</g>
	<g>
		<defs>
			<path id="SVGID_728_" d="M773.565,245.5c-0.574-1.531,0.096-3.126,1.47-3.604c1.341-0.484,2.841,0.379,3.384,1.879
				c0.512,1.501-0.159,3.131-1.5,3.58c-0.223,0.06-0.479,0.125-0.767,0.125C775.066,247.479,773.95,246.711,773.565,245.5
				 M775.386,239.053l-2.426,0.828c-1.852,1.341-2.713,3.894-1.852,6.451c1.053,3.002,4.117,4.692,6.768,3.765
				c2.682-0.957,4.023-4.148,2.969-7.149c-0.83-2.458-2.969-3.929-5.234-3.929C775.546,239.019,775.481,239.053,775.386,239.053"/>
		</defs>
		<use xlink:href="#SVGID_728_"  overflow="visible" fill="#231F20"/>
		<clipPath id="SVGID_46_">
			<use xlink:href="#SVGID_728_"  overflow="visible"/>
		</clipPath>
		<polygon clip-path="url(#SVGID_46_)" fill="#231F20" points="785.794,249.588 771.651,254.793 766.352,240.454 780.495,235.219 		
			"/>
	</g>
	<g>
		<defs>
			<path id="SVGID_730_" d="M793.775,105.569c0-1.631,1.341-2.906,3.001-2.906c1.691,0,3.065,1.275,3.065,2.906
				c0,1.565-1.374,2.901-3.065,2.901C795.116,108.471,793.775,107.135,793.775,105.569 M795.213,41.812l0.063,5.619v52.645
				c-2.586,0.673-4.502,2.812-4.502,5.494c0,3.161,2.649,5.778,6.002,5.778c3.416,0,6.098-2.617,6.098-5.778
				c0-2.683-1.946-4.821-4.502-5.494V47.431l0.033-5.619H795.213z"/>
		</defs>
		<use xlink:href="#SVGID_730_"  overflow="visible" fill="#231F20"/>
		<clipPath id="SVGID_48_">
			<use xlink:href="#SVGID_730_"  overflow="visible"/>
		</clipPath>
		<polygon clip-path="url(#SVGID_48_)" fill="#231F20" points="803.991,111.313 790.774,111.537 789.625,41.812 802.874,41.622 		
			"/>
	</g>
	<g>
		<defs>
			<path id="SVGID_732_" d="M560.715,48.388c0-1.276,1.182-2.299,2.587-2.299c1.436,0,2.584,1.022,2.584,2.299
				c0,1.246-1.148,2.298-2.584,2.298C561.896,50.686,560.715,49.634,560.715,48.388 M558.161,48.388
				c0,2.522,2.298,4.597,5.141,4.597c2.394,0,4.31-1.466,4.885-3.445h9.641l87.733,0.03v-2.363l-87.733,0.035h-9.641
				c-0.575-1.979-2.491-3.45-4.885-3.45C560.459,43.791,558.161,45.835,558.161,48.388"/>
		</defs>
		<use xlink:href="#SVGID_732_"  overflow="visible" fill="#231F20"/>
		<clipPath id="SVGID_49_">
			<use xlink:href="#SVGID_732_"  overflow="visible"/>
		</clipPath>
		<polygon clip-path="url(#SVGID_49_)" fill="#231F20" points="558.161,54.68 558.001,43.791 665.561,42.065 665.753,52.984 		"/>
	</g>
	<g>
		<defs>
			<path id="SVGID_734_" d="M656.397,76.482h0.096H656.397z M659.048,76.482h0.063H659.048z M655.216,60.199
				c0-1.596,1.149-2.902,2.587-2.902c1.372,0,2.554,1.307,2.554,2.902c0,1.6-1.182,2.876-2.554,2.876
				C656.365,63.075,655.216,61.799,655.216,60.199 M652.599,60.199c0,2.652,1.66,4.791,3.895,5.459v10.824h2.555V65.658
				c2.234-0.668,3.863-2.807,3.863-5.459c0-3.191-2.299-5.809-5.108-5.809C654.929,54.391,652.599,57.008,652.599,60.199"/>
		</defs>
		<use xlink:href="#SVGID_734_"  overflow="visible" fill="#231F20"/>
		<clipPath id="SVGID_51_">
			<use xlink:href="#SVGID_734_"  overflow="visible"/>
		</clipPath>
		<polygon clip-path="url(#SVGID_51_)" fill="#231F20" points="652.247,54.42 662.911,54.261 663.293,76.482 652.599,76.642 		"/>
	</g>
	<g>
		<defs>
			<path id="SVGID_736_" d="M513.592,85.168c0-1.406,1.245-2.588,2.873-2.588c1.597,0,2.905,1.182,2.905,2.588
				c0,1.405-1.309,2.552-2.905,2.552C514.837,87.72,513.592,86.573,513.592,85.168 M510.974,83.856h-10.792v-0.03v2.683v-0.064
				h10.792c0.671,2.203,2.81,3.863,5.491,3.863c3.193,0,5.778-2.333,5.778-5.14c0-2.843-2.585-5.141-5.778-5.141
				C513.784,80.027,511.645,81.688,510.974,83.856"/>
		</defs>
		<use xlink:href="#SVGID_736_"  overflow="visible" fill="#231F20"/>
		<clipPath id="SVGID_52_">
			<use xlink:href="#SVGID_736_"  overflow="visible"/>
		</clipPath>
		<polygon clip-path="url(#SVGID_52_)" fill="#231F20" points="500.183,90.657 500.023,80.027 522.212,79.679 522.403,90.278 		"/>
	</g>
	<g>
		<defs>
			<path id="SVGID_738_" d="M569.079,83.572c0-1.406,1.309-2.553,2.938-2.553c1.596,0,2.874,1.146,2.874,2.553
				s-1.278,2.582-2.874,2.582C570.388,86.154,569.079,84.979,569.079,83.572 M540.41,69.173c0-1.311,1.054-2.393,2.49-2.393
				c1.372,0,2.522,1.082,2.522,2.393c0,1.342-1.15,2.424-2.522,2.424C541.464,71.597,540.41,70.515,540.41,69.173 M537.824,69.173
				c0,2.264,1.66,4.054,3.799,4.598v9.034l-0.063,11.048h2.554v-8.909l11.589-0.095h10.823c0.638,2.233,2.81,3.894,5.491,3.894
				c3.16,0,5.778-2.298,5.778-5.17c0-2.813-2.618-5.11-5.778-5.11c-2.682,0-4.854,1.66-5.491,3.834h-22.412v-8.525
				c2.171-0.544,3.767-2.334,3.767-4.598c0-2.682-2.202-4.821-4.979-4.821C540.122,64.352,537.824,66.491,537.824,69.173"/>
		</defs>
		<use xlink:href="#SVGID_738_"  overflow="visible" fill="#231F20"/>
		<clipPath id="SVGID_54_">
			<use xlink:href="#SVGID_738_"  overflow="visible"/>
		</clipPath>
		
			<rect x="542.754" y="58.923" transform="matrix(-0.0159 -0.9999 0.9999 -0.0159 487.5884 638.1134)" clip-path="url(#SVGID_54_)" fill="#231F20" width="30.142" height="40.36"/>
	</g>
	<g>
		<defs>
			<path id="SVGID_740_" d="M416.952,78.462c0-1.437,1.276-2.583,2.873-2.583c1.597,0,2.873,1.146,2.873,2.583
				c0,1.406-1.276,2.558-2.873,2.558C418.228,81.02,416.952,79.868,416.952,78.462 M414.365,77.155h-10.854l-25.318-0.064v2.712
				l25.318-0.064h10.854c0.67,2.174,2.809,3.834,5.459,3.834c3.224,0,5.778-2.299,5.778-5.11c0-2.872-2.554-5.171-5.778-5.171
				C417.174,73.291,415.036,74.952,414.365,77.155"/>
		</defs>
		<use xlink:href="#SVGID_740_"  overflow="visible" fill="#231F20"/>
		<clipPath id="SVGID_56_">
			<use xlink:href="#SVGID_740_"  overflow="visible"/>
		</clipPath>
		<polygon clip-path="url(#SVGID_56_)" fill="#231F20" points="378.225,84.335 378.065,73.291 425.603,72.523 425.795,83.572 		"/>
	</g>
	<g>
		<defs>
			<path id="SVGID_742_" d="M482.368,117.031c0-1.601,1.149-2.906,2.554-2.906s2.586,1.306,2.586,2.906
				c0,1.596-1.182,2.872-2.586,2.872S482.368,118.627,482.368,117.031 M471.098,95.573c0-1.596,1.149-2.902,2.554-2.902
				s2.586,1.307,2.586,2.902c0,1.6-1.182,2.876-2.586,2.876S471.098,97.173,471.098,95.573 M482.719,68.44
				c-2.841,0.857-4.438,3.829-3.607,6.512c0.734,2.298,2.969,3.574,5.3,3.444l8.333,26.629c0,0,5.492,25.224-5.683,48.622
				c-0.159,0.479-0.415,0.992-0.766,1.535l-0.096-21.873v-10.789c2.267-0.638,3.832-2.807,3.832-5.489
				c0-3.195-2.235-5.748-5.108-5.748c-2.842,0-5.14,2.553-5.14,5.748c0,2.683,1.66,4.852,3.862,5.489v10.789l-0.063,25.288
				c-2.49,2.808-5.842,5.938-8.651,8.426v-65.991c2.17-0.639,3.863-2.807,3.863-5.459c0-3.191-2.298-5.779-5.141-5.779
				c-2.842,0-5.14,2.588-5.14,5.779c0,2.652,1.66,4.82,3.832,5.459v68.23h0.063c-0.382,0.349-0.734,0.638-0.99,0.893l-5.778-9.005
				v-27.008c1.693-0.768,2.873-2.428,2.873-4.407c0-2.712-2.139-4.852-4.789-4.852c-2.681,0-4.885,2.14-4.885,4.852
				c0,2.363,1.756,4.343,4.055,4.727v22.476l-5.363-8.366c1.022-1.53,1.149-3.64,0.063-5.3c-1.468-2.233-4.47-2.872-6.672-1.466
				c-2.299,1.466-2.906,4.468-1.469,6.701c1.309,2.044,3.831,2.747,6.002,1.79l13.888,21.583l1.149,2.074
				c12.515-8.845,17.4-16.668,18.869-19.314l0,0c0.096-0.195,0.159-0.385,0.255-0.544c0.16-0.289,0.192-0.448,0.192-0.448l0,0
				c11.494-26.051,5.523-49.295,5.523-49.295l-8.333-26.719c1.979-1.246,3.033-3.609,2.362-5.873
				c-0.671-2.174-2.714-3.58-4.981-3.58C483.837,68.181,483.229,68.28,482.719,68.44"/>
		</defs>
		<use xlink:href="#SVGID_742_"  overflow="visible" fill="#231F20"/>
		<clipPath id="SVGID_57_">
			<use xlink:href="#SVGID_742_"  overflow="visible"/>
		</clipPath>
		<polygon clip-path="url(#SVGID_57_)" fill="#231F20" points="501.301,67.354 502.992,173.924 448.015,174.816 446.324,68.216 		
			"/>
	</g>
	<g>
		<defs>
			<path id="SVGID_744_" d="M407.789,191.225l37.098,74.263l43.579-1.151c0.638,2.493,2.906,4.343,5.651,4.343
				c3.256,0,5.906-2.647,5.906-5.908c0-3.285-2.65-5.968-5.906-5.968c-2.842,0-5.236,2.009-5.811,4.691l-41.633,1.057
				l-36.331-72.603L407.789,191.225z"/>
		</defs>
		<use xlink:href="#SVGID_744_"  overflow="visible" fill="#231F20"/>
		<clipPath id="SVGID_59_">
			<use xlink:href="#SVGID_744_"  overflow="visible"/>
		</clipPath>
		<polygon clip-path="url(#SVGID_59_)" fill="#231F20" points="500.023,188.482 501.268,268.648 407.789,270.149 406.511,189.948 		
			"/>
	</g>
	<g>
		<defs>
			<path id="SVGID_746_" d="M433.042,185.481c0,2.553,2.076,4.597,4.566,4.597c2.554,0,4.597-2.044,4.597-4.597
				c0-2.523-2.042-4.598-4.597-4.598C435.117,180.884,433.042,182.958,433.042,185.481"/>
		</defs>
		<use xlink:href="#SVGID_746_"  overflow="visible" fill="#231F20"/>
		<clipPath id="SVGID_60_">
			<use xlink:href="#SVGID_746_"  overflow="visible"/>
		</clipPath>
		<polygon clip-path="url(#SVGID_60_)" fill="#231F20" points="442.204,180.755 442.396,190.078 433.042,190.202 432.915,180.884 		
			"/>
	</g>
	<g>
		<defs>
			<path id="SVGID_748_" d="M410.151,162.94c0,2.458,1.979,4.438,4.406,4.438c2.458,0,4.437-1.979,4.437-4.438
				c0-2.394-1.979-4.343-4.437-4.343C412.13,158.598,410.151,160.547,410.151,162.94"/>
		</defs>
		<use xlink:href="#SVGID_748_"  overflow="visible" fill="#231F20"/>
		<clipPath id="SVGID_62_">
			<use xlink:href="#SVGID_748_"  overflow="visible"/>
		</clipPath>
		<polygon clip-path="url(#SVGID_62_)" fill="#231F20" points="418.994,158.438 419.09,167.378 410.151,167.503 410.055,158.598 		
			"/>
	</g>
	<g>
		<defs>
			<polygon id="SVGID_750_" points="400.861,157.925 431.765,215.171 443.003,215.171 416.792,164.885 414.238,166.196 
				438.278,212.3 433.457,212.3 403.383,156.554 			"/>
		</defs>
		<use xlink:href="#SVGID_750_"  overflow="visible" fill="#231F20"/>
		<clipPath id="SVGID_63_">
			<use xlink:href="#SVGID_750_"  overflow="visible"/>
		</clipPath>
		<polygon clip-path="url(#SVGID_63_)" fill="#231F20" points="443.003,155.886 443.897,215.171 400.861,215.84 399.903,156.554 		
			"/>
	</g>
	<g>
		<defs>
			<polygon id="SVGID_752_" points="439.268,231.101 441.854,229.795 437.384,220.885 441.215,220.979 458.519,251.054 
				461.009,249.618 442.907,218.173 432.626,217.919 			"/>
		</defs>
		<use xlink:href="#SVGID_752_"  overflow="visible" fill="#231F20"/>
		<clipPath id="SVGID_65_">
			<use xlink:href="#SVGID_752_"  overflow="visible"/>
		</clipPath>
		<polygon clip-path="url(#SVGID_65_)" fill="#231F20" points="461.009,217.47 461.521,251.054 432.626,251.503 432.084,217.919 		
			"/>
	</g>
	<g>
		<defs>
			<polygon id="SVGID_754_" points="437.511,189.28 476.973,263.952 479.559,262.646 440.034,187.939 			"/>
		</defs>
		<use xlink:href="#SVGID_754_"  overflow="visible" fill="#231F20"/>
		<clipPath id="SVGID_66_">
			<use xlink:href="#SVGID_754_"  overflow="visible"/>
		</clipPath>
		<rect x="437.511" y="187.939" clip-path="url(#SVGID_66_)" fill="#231F20" width="42.048" height="76.013"/>
	</g>
	<g>
		<defs>
			<polygon id="SVGID_756_" points="411.619,147.006 411.619,149.883 429.594,149.883 477.611,243.231 480.197,241.925 
				431.35,147.006 			"/>
		</defs>
		<use xlink:href="#SVGID_756_"  overflow="visible" fill="#231F20"/>
		<clipPath id="SVGID_68_">
			<use xlink:href="#SVGID_756_"  overflow="visible"/>
		</clipPath>
		<polygon clip-path="url(#SVGID_68_)" fill="#231F20" points="480.197,145.924 481.698,243.201 411.619,244.318 410.087,147.041 		
			"/>
	</g>
	<g>
		<defs>
			<polygon id="SVGID_758_" points="417.686,149.085 425.858,165.942 428.445,164.665 420.24,147.809 			"/>
		</defs>
		<use xlink:href="#SVGID_758_"  overflow="visible" fill="#231F20"/>
		<clipPath id="SVGID_69_">
			<use xlink:href="#SVGID_758_"  overflow="visible"/>
		</clipPath>
		<polygon clip-path="url(#SVGID_69_)" fill="#231F20" points="428.445,147.679 428.764,165.942 417.686,166.102 417.367,147.809 		
			"/>
	</g>
	<g>
		<defs>
			<path id="SVGID_760_" d="M435.724,151.892c0,2.713,2.235,4.916,4.948,4.916c0.479,0,0.926-0.095,1.373-0.254l32.725,62.063
				l2.489-1.341l-32.788-62.317c0.67-0.832,1.053-1.914,1.053-3.066c0-2.712-2.17-4.886-4.853-4.886
				C437.959,147.006,435.724,149.18,435.724,151.892"/>
		</defs>
		<use xlink:href="#SVGID_760_"  overflow="visible" fill="#231F20"/>
		<clipPath id="SVGID_71_">
			<use xlink:href="#SVGID_760_"  overflow="visible"/>
		</clipPath>
		<polygon clip-path="url(#SVGID_71_)" fill="#231F20" points="477.259,146.338 478.441,218.616 435.724,219.29 434.575,147.006 		
			"/>
	</g>
	<g>
		<defs>
			<path id="SVGID_762_" d="M590.183,93.853c0-1.151,1.021-2.079,2.299-2.079c1.213,0,2.234,0.928,2.234,2.079
				c0,1.082-1.021,1.979-2.234,1.979C591.204,95.832,590.183,94.935,590.183,93.853 M555.638,67.418
				c0-1.601,1.438-2.877,3.161-2.877c1.788,0,3.257,1.276,3.257,2.877c0,1.561-1.469,2.842-3.257,2.842
				C557.075,70.26,555.638,68.979,555.638,67.418 M531.694,57.362c0-1.247,1.118-2.239,2.458-2.239c1.437,0,2.523,0.992,2.523,2.239
				c0,1.176-1.086,2.198-2.523,2.198C532.812,59.561,531.694,58.538,531.694,57.362 M499.066,41.492l0.127,53.348h88.916
				c0.574,1.755,2.234,3.066,4.373,3.066c2.521,0,4.566-1.82,4.566-4.054c0-2.269-2.045-4.088-4.566-4.088
				c-2.139,0-3.799,1.276-4.373,3.031h-86.681l-0.063-49.738c-0.288-0.832,0.382-0.798,1.022-0.732c0.223,0,0.479,0,0.702,0h2.777
				h6.769h150.883c0.095,0,0.224,0,0.415,0c0.19,0,0.415,0,0.51,0.06v0.927v1.82v30.872h-42.78V56.24h-1.213h-0.83h-1.437H538.94
				c-0.542-1.915-2.458-3.32-4.789-3.32c-2.777,0-4.979,1.979-4.979,4.442c0,2.458,2.202,4.437,4.979,4.437
				c2.331,0,4.247-1.44,4.789-3.32h9.324l70.332,0.06c0.574,0,1.022,0.449,1.022,0.992v16.474h-23.562V65.947h-1.565h-1.021h-1.884
				h-26.659c-0.734-2.393-3.16-4.248-6.13-4.248c-3.511,0-6.353,2.558-6.353,5.719s2.842,5.679,6.353,5.679
				c2.97,0,5.396-1.819,6.13-4.242h12.035l16.508,0.029v7.12h-4.215c-0.703-1.69-2.395-2.907-4.373-2.907
				c-3.002,0-5.364,2.683-4.822,5.749c0.383,1.85,1.853,3.415,3.703,3.829c2.842,0.578,5.396-1.336,5.844-3.959h77.134v-0.763
				v-1.949V49.923v-4.95V41.94v-1.535c-0.159-0.189-0.575-0.159-0.958-0.125c-0.224,0-0.447,0-0.639,0H512.634h-6.769h-3.959
				c-0.319,0.065-0.67,0-1.117,0c-0.192,0-0.415-0.034-0.67-0.034C499.289,40.246,498.714,40.44,499.066,41.492"/>
		</defs>
		<use xlink:href="#SVGID_762_"  overflow="visible" fill="#231F20"/>
		<clipPath id="SVGID_72_">
			<use xlink:href="#SVGID_762_"  overflow="visible"/>
		</clipPath>
		<polygon clip-path="url(#SVGID_72_)" fill="#231F20" points="666.742,37.563 667.667,97.876 498.714,100.554 497.788,40.246 		"/>
	</g>
	<g>
		<defs>
			<path id="SVGID_764_" d="M567.546,113.517h-1.499h-1.245l0,0v2.558l0,0v25.283c-1.693,0.768-2.874,2.428-2.874,4.407
				c0,2.683,2.139,4.851,4.821,4.851c2.682,0,4.82-2.168,4.82-4.851c0-2.363-1.723-4.343-4.023-4.727v-24.964h41.314v-2.558H567.546
				z"/>
		</defs>
		<use xlink:href="#SVGID_764_"  overflow="visible" fill="#231F20"/>
		<clipPath id="SVGID_74_">
			<use xlink:href="#SVGID_764_"  overflow="visible"/>
		</clipPath>
		<polygon clip-path="url(#SVGID_74_)" fill="#231F20" points="608.86,112.784 609.401,150.586 561.928,151.384 561.321,113.517 		
			"/>
	</g>
	<g>
		<defs>
			<path id="SVGID_766_" d="M601.006,202.622c0,2.522,1.946,4.632,4.564,5.046v40.195h-27.265c-0.766,0-1.372,0.573-1.372,1.341
				c0,0.733,0.606,1.341,1.372,1.341h27.265h1.692h1.309h0.033v-2.682h-0.033v-40.545c2.299-0.962,3.736-3.29,3.162-5.878
				c-0.416-1.914-2.172-3.51-4.215-3.894c-0.383-0.03-0.767-0.065-1.086-0.065C603.464,197.481,601.006,199.75,601.006,202.622"/>
		</defs>
		<use xlink:href="#SVGID_766_"  overflow="visible" fill="#231F20"/>
		<clipPath id="SVGID_75_">
			<use xlink:href="#SVGID_766_"  overflow="visible"/>
		</clipPath>
		<polygon clip-path="url(#SVGID_75_)" fill="#231F20" points="576.934,251.119 576.04,197.481 612.308,196.908 613.17,250.545 		
			"/>
	</g>
	<g>
		<defs>
			<path id="SVGID_768_" d="M599.249,123.927h-12.643h-1.244h-1.246v123.937h2.49V126.609h12.994
				c0.702,1.72,2.395,2.901,4.375,2.901c2.649,0,4.885-2.139,4.885-4.821c0-2.677-2.235-4.816-4.885-4.816
				C601.612,119.873,599.632,121.628,599.249,123.927"/>
		</defs>
		<use xlink:href="#SVGID_768_"  overflow="visible" fill="#231F20"/>
		<clipPath id="SVGID_77_">
			<use xlink:href="#SVGID_768_"  overflow="visible"/>
		</clipPath>
		<polygon clip-path="url(#SVGID_77_)" fill="#231F20" points="608.86,119.455 610.87,247.798 584.116,248.247 582.104,119.873 		
			"/>
	</g>
	<g>
		<defs>
			<path id="SVGID_770_" d="M600.91,261.529c0-1.406,1.245-2.558,2.873-2.558c1.597,0,2.842,1.151,2.842,2.558
				c0,1.4-1.245,2.553-2.842,2.553C602.155,264.082,600.91,262.93,600.91,261.529 M599.473,101.93h-41.312h-2.523v0.095v2.553v0.064
				v50.157h-0.127v2.522h19.922v102.932h-0.063v2.647l12.132-0.095h10.791c0.67,2.203,2.811,3.894,5.491,3.894
				c3.161,0,5.747-2.299,5.747-5.17c0-2.842-2.586-5.141-5.747-5.141c-2.681,0-4.821,1.66-5.491,3.864h-20.336V157.321l0,0v-2.522
				h-19.795v-50.157h41.631c0.734,1.726,2.427,2.937,4.438,2.937c2.649,0,4.819-2.168,4.819-4.851s-2.17-4.821-4.819-4.821
				C601.804,97.906,599.824,99.661,599.473,101.93"/>
		</defs>
		<use xlink:href="#SVGID_770_"  overflow="visible" fill="#231F20"/>
		<clipPath id="SVGID_78_">
			<use xlink:href="#SVGID_770_"  overflow="visible"/>
		</clipPath>
		
			<rect x="497.731" y="153.951" transform="matrix(-0.0158 -0.9999 0.9999 -0.0158 409.482 767.6345)" clip-path="url(#SVGID_78_)" fill="#231F20" width="169.612" height="56.675"/>
	</g>
	<g>
		<defs>
			<rect id="SVGID_772_" x="605.985" y="133.505" width="2.875" height="60.147"/>
		</defs>
		<use xlink:href="#SVGID_772_"  overflow="visible" fill="#231F20"/>
		<clipPath id="SVGID_80_">
			<use xlink:href="#SVGID_772_"  overflow="visible"/>
		</clipPath>
		<polygon clip-path="url(#SVGID_80_)" fill="#231F20" points="608.86,133.47 609.786,193.652 605.985,193.718 604.965,133.534 		
			"/>
	</g>
	<g>
		<defs>
			<path id="SVGID_774_" d="M429.594,92.098c-1.916,1.88-1.916,5.041,0,6.925c1.883,1.915,5.012,1.915,6.928,0
				c0.192-0.189,0.384-0.384,0.511-0.607c2.043,1.565,6.641,6.676,7.439,21.553l2.873-0.194c-0.958-17.4-6.991-22.729-9.386-24.2
				c0-1.276-0.448-2.553-1.437-3.476c-0.926-0.992-2.203-1.44-3.48-1.44C431.796,90.657,430.584,91.105,429.594,92.098"/>
		</defs>
		<use xlink:href="#SVGID_774_"  overflow="visible" fill="#231F20"/>
		<clipPath id="SVGID_81_">
			<use xlink:href="#SVGID_774_"  overflow="visible"/>
		</clipPath>
		<polygon clip-path="url(#SVGID_81_)" fill="#231F20" points="447.313,90.338 447.792,119.903 427.678,120.223 427.167,90.657 		
			"/>
	</g>
	<g>
		<defs>
			<path id="SVGID_776_" d="M446.355,59.117c2.586,0.479,8.972,2.901,16.474,15.705l2.49-1.466
				c-8.78-15.008-16.633-16.986-19.476-17.176L446.355,59.117z"/>
		</defs>
		<use xlink:href="#SVGID_776_"  overflow="visible" fill="#231F20"/>
		<clipPath id="SVGID_83_">
			<use xlink:href="#SVGID_776_"  overflow="visible"/>
		</clipPath>
		<polygon clip-path="url(#SVGID_83_)" fill="#231F20" points="460.946,48.068 473.11,70.609 450.25,82.934 438.086,60.394 		"/>
	</g>
	<g>
		<defs>
			<path id="SVGID_778_" d="M461.68,74.887c-1.341,2.394-0.479,5.395,1.916,6.706c2.395,1.341,5.427,0.479,6.705-1.914
				c1.309-2.363,0.446-5.43-1.916-6.741c-0.767-0.414-1.597-0.604-2.395-0.604C464.234,72.334,462.574,73.257,461.68,74.887"/>
		</defs>
		<use xlink:href="#SVGID_778_"  overflow="visible" fill="#231F20"/>
		<clipPath id="SVGID_84_">
			<use xlink:href="#SVGID_778_"  overflow="visible"/>
		</clipPath>
		<polygon clip-path="url(#SVGID_84_)" fill="#231F20" points="455.933,80.601 462.829,67.673 475.983,74.697 469.151,87.626 		"/>
	</g>
	<g>
		<defs>
			<path id="SVGID_780_" d="M390.389,66.939c0-1.501,1.085-2.683,2.522-2.683c1.436,0,2.618,1.182,2.618,2.683
				c0,1.466-1.182,2.647-2.618,2.647C391.474,69.587,390.389,68.405,390.389,66.939 M387.771,66.939c0,2.967,2.331,5.33,5.14,5.33
				c2.362,0,4.278-1.726,4.916-4.023c0,0,18.773-0.928,29.34-0.125v0.06c0.159-0.029,21.934,0.319,33.204,36.91l2.713-0.833
				c-8.332-27.167-22.093-35.374-29.947-37.861v-0.035c-0.352-0.095-0.702-0.189-1.085-0.284c-2.81-0.738-4.629-0.768-4.885-0.768
				v0.189c-10.727-0.764-29.34,0.1-29.34,0.1c-0.638-2.334-2.554-4.023-4.916-4.023C390.102,61.575,387.771,63.968,387.771,66.939"
				/>
		</defs>
		<use xlink:href="#SVGID_780_"  overflow="visible" fill="#231F20"/>
		<clipPath id="SVGID_86_">
			<use xlink:href="#SVGID_780_"  overflow="visible"/>
		</clipPath>
		<polygon clip-path="url(#SVGID_86_)" fill="#231F20" points="463.084,60.358 463.819,105.091 387.803,106.302 387.068,61.604 		
			"/>
	</g>
	<g>
		<defs>
			<rect id="SVGID_782_" x="795.213" y="41.362" width="52.806" height="2.941"/>
		</defs>
		<use xlink:href="#SVGID_782_"  overflow="visible" fill="#231F20"/>
		<clipPath id="SVGID_87_">
			<use xlink:href="#SVGID_782_"  overflow="visible"/>
		</clipPath>
		
			<rect x="819.716" y="16.396" transform="matrix(-0.0165 -0.9999 0.9999 -0.0165 792.3038 865.0427)" clip-path="url(#SVGID_87_)" fill="#231F20" width="3.799" height="52.875"/>
	</g>
	<g>
		<defs>
			<path id="SVGID_784_" d="M679.831,68.405c0-1.596,1.341-2.872,3.002-2.872c1.691,0,3.097,1.276,3.097,2.872
				c0,1.631-1.405,2.907-3.097,2.907C681.172,71.313,679.831,70.036,679.831,68.405 M676.831,68.405c0,2.683,1.914,4.821,4.5,5.494
				v104.621v7.918l-0.063,5.619h0.255c4.31,52.391,47.06,68.893,58.681,72.438c0,0.195,0.031,0.385,0.063,0.574
				c0.575,2.747,3.289,4.502,6.066,3.929c2.746-0.608,4.502-3.321,3.959-6.098c-0.639-2.713-3.352-4.503-6.13-3.929
				c-1.532,0.318-2.776,1.405-3.448,2.682c-11.396-3.51-51.975-19.504-56.285-69.596h0.031l-0.096-5.619V73.899
				c2.619-0.673,4.565-2.812,4.565-5.494c0-3.19-2.681-5.743-6.097-5.743C679.48,62.662,676.831,65.215,676.831,68.405"/>
		</defs>
		<use xlink:href="#SVGID_784_"  overflow="visible" fill="#231F20"/>
		<clipPath id="SVGID_89_">
			<use xlink:href="#SVGID_784_"  overflow="visible"/>
		</clipPath>
		<polygon clip-path="url(#SVGID_89_)" fill="#231F20" points="750.804,61.445 754.155,269.541 676.831,270.787 673.511,62.691 		
			"/>
	</g>
	<g>
		<defs>
			<path id="SVGID_786_" d="M844.538,205.719c0,0.479,0.894,47.509-74.291,57.211c-0.927-2.233-3.354-3.574-5.779-3.061
				c-2.746,0.638-4.534,3.32-3.928,6.063c0.607,2.776,3.32,4.537,6.066,3.958c2.076-0.443,3.641-2.104,3.99-4.083
				c39.59-5.11,58.361-20.496,67.141-32.757c10.089-14.05,9.643-26.883,9.643-27.361l2.076-164.326l-2.843-0.029L844.538,205.719z"
				/>
		</defs>
		<use xlink:href="#SVGID_786_"  overflow="visible" fill="#231F20"/>
		<clipPath id="SVGID_90_">
			<use xlink:href="#SVGID_786_"  overflow="visible"/>
		</clipPath>
		<polygon clip-path="url(#SVGID_90_)" fill="#231F20" points="849.456,39.896 853.126,270.403 759.934,271.904 756.294,41.397 		
			"/>
	</g>
	<g>
		<defs>
			<path id="SVGID_788_" d="M687.143,42.101c0-1.406,1.309-2.558,2.905-2.558c1.596,0,2.873,1.151,2.873,2.558
				c0,1.466-1.277,2.582-2.873,2.582C688.451,44.683,687.143,43.566,687.143,42.101 M684.301,42.101c0,2.872,2.618,5.17,5.747,5.17
				c2.682,0,4.82-1.66,5.49-3.863h35.119l0.128,155.451l0.128,0.384l0.031,0.219c0.479,0.639,11.238,15.551,29.31,17.655
				c1.436,0.159,2.81,0.259,4.245,0.259c10.982,0,22.156-4.951,33.235-14.753l0.544-0.479l-0.512-74.961
				c3.32-0.703,5.428-3.994,4.66-7.31c-0.669-3.32-3.959-5.429-7.311-4.727c-3.32,0.733-5.459,3.989-4.692,7.31
				c0.51,2.363,2.267,4.088,4.47,4.662l0.51,73.749c-11.749,10.216-23.465,14.748-34.736,13.412
				c-15.131-1.726-25.029-13.477-26.977-15.965l-0.223-157.49h-37.93c-0.67-2.204-2.809-3.864-5.49-3.864
				C686.919,36.96,684.301,39.259,684.301,42.101"/>
		</defs>
		<use xlink:href="#SVGID_788_"  overflow="visible" fill="#231F20"/>
		<clipPath id="SVGID_92_">
			<use xlink:href="#SVGID_788_"  overflow="visible"/>
		</clipPath>
		<polygon clip-path="url(#SVGID_92_)" fill="#231F20" points="823.085,39.193 801.692,230.498 664.348,215.137 685.737,23.867 		
			"/>
	</g>
	<g>
		<defs>
			<path id="SVGID_790_" d="M803.928,186.692c0-1.63,1.149-2.906,2.587-2.906c1.437,0,2.586,1.276,2.586,2.906
				c0,1.565-1.149,2.872-2.586,2.872C805.077,189.564,803.928,188.258,803.928,186.692 M805.046,178.137l0.191,1.661v1.405
				c-2.203,0.639-3.863,2.808-3.863,5.489c0,3.191,2.33,5.749,5.141,5.749c2.842,0,5.14-2.558,5.14-5.749
				c0-2.682-1.66-4.851-3.831-5.489v-1.725l0.128-1.342V54.391l27.839,0.573l-2.842,157.271
				c-15.994,28.284-40.45,41.248-74.61,39.587c-19.954-0.986-35.534-7.533-46.229-19.444c-13.568-15.102-15.676-35.02-15.931-43.132
				l0,0V62.946c2.458-0.573,4.31-2.488,4.31-4.887c0-2.837-2.618-5.14-5.779-5.14c-3.159,0-5.778,2.303-5.778,5.14
				c0,2.398,1.853,4.313,4.311,4.887v122.659c-0.128,2.683-0.862,29.087,16.729,48.691c11.205,12.479,27.424,19.375,48.209,20.366
				c2.01,0.13,3.99,0.16,5.969,0.16c32.405,0,55.807-13.631,71.483-41.507l0.159-0.319l2.97-160.84l-33.714-0.703V178.137z"/>
		</defs>
		<use xlink:href="#SVGID_790_"  overflow="visible" fill="#231F20"/>
		<clipPath id="SVGID_93_">
			<use xlink:href="#SVGID_790_"  overflow="visible"/>
		</clipPath>
		<polygon clip-path="url(#SVGID_93_)" fill="#231F20" points="861.172,53.941 836.844,271.361 666.486,252.33 690.782,34.916 		"/>
	</g>
	<g>
		<defs>
			<path id="SVGID_792_" d="M698.636,103.012c0,2.144,1.691,3.864,3.896,4.377v85.083v0.349c0,0.159-0.159,0.768,0,2.298l0.03,0.514
				l0.065,0.449c0.638,6.641,3.479,22.027,16.377,34.352c11.11,10.535,26.691,15.865,46.548,15.865c1.82,0,3.705-0.03,5.588-0.095
				l-0.128-2.907c-21.709,1.057-38.47-3.959-49.964-14.877c-15.58-14.843-15.963-35.599-15.963-35.788v-0.189v-85.053
				c2.234-0.513,3.926-2.233,3.926-4.377c0-2.518-2.361-4.597-5.171-4.597C700.967,98.415,698.636,100.494,698.636,103.012"/>
		</defs>
		<use xlink:href="#SVGID_792_"  overflow="visible" fill="#231F20"/>
		<clipPath id="SVGID_95_">
			<use xlink:href="#SVGID_792_"  overflow="visible"/>
		</clipPath>
		<polygon clip-path="url(#SVGID_95_)" fill="#231F20" points="787.485,100.234 770.278,254.31 682.321,244.478 699.53,90.438 		"/>
	</g>
	<g>
		<defs>
			<path id="SVGID_794_" d="M703.84,51.997c0,2.902,2.331,5.3,5.3,5.3c2.617,0,4.789-1.914,5.204-4.438h8.939v140.793v1.406
				c0.319,5.844,2.969,18.771,17.91,24.455c-0.159,0.763-0.032,1.531,0.192,2.299c0.926,2.617,3.734,3.959,6.32,3.066
				c2.586-0.928,3.928-3.739,2.969-6.322c-0.861-2.558-3.671-3.898-6.289-3.001c-0.766,0.254-1.405,0.732-1.98,1.306
				c-13.632-5.046-15.771-17.844-16.122-23.209h0.159V49.923h-2.105H713.96c-0.766-1.919-2.682-3.226-4.82-3.226
				C706.171,46.697,703.84,49.091,703.84,51.997"/>
		</defs>
		<use xlink:href="#SVGID_794_"  overflow="visible" fill="#231F20"/>
		<clipPath id="SVGID_96_">
			<use xlink:href="#SVGID_794_"  overflow="visible"/>
		</clipPath>
		<polygon clip-path="url(#SVGID_96_)" fill="#231F20" points="771.427,48.901 750.995,231.071 684.077,223.537 704.446,41.428 		
			"/>
	</g>
	<g>
		<defs>
			<path id="SVGID_796_" d="M710.097,68.405c0-1.596,1.342-2.872,3.033-2.872c1.66,0,3.033,1.276,3.033,2.872
				c0,1.631-1.373,2.907-3.033,2.907C711.438,71.313,710.097,70.036,710.097,68.405 M814.942,68.405
				c0-1.596,1.342-2.872,3.002-2.872s3,1.276,3,2.872c0,1.631-1.34,2.907-3,2.907S814.942,70.036,814.942,68.405 M811.845,68.405
				c0,2.683,1.98,4.821,4.566,5.494v104.621v7.918l-0.031,2.742c-3.736,40.295-41.919,45.211-43.42,45.4c-0.543,0-1.149,0-1.724,0
				c-48.241,0-55.487-34.736-56.511-42.618l-0.096-5.524V73.899c2.65-0.673,4.599-2.812,4.599-5.494c0-3.19-2.714-5.743-6.099-5.743
				c-3.352,0-6.065,2.553-6.065,5.743c0,2.683,1.946,4.821,4.533,5.494v104.621v7.918l-0.063,5.619l0.19,0.922
				c1.055,7.857,9.005,44.474,59.702,44.474c0.543,0,1.182,0,1.725-0.03c0.447-0.03,40.45-5.105,45.813-45.365l0.128-1.152
				l0.352-4.467V73.899c2.65-0.673,4.598-2.812,4.598-5.494c0-3.19-2.746-5.743-6.098-5.743
				C814.591,62.662,811.845,65.215,811.845,68.405"/>
		</defs>
		<use xlink:href="#SVGID_796_"  overflow="visible" fill="#231F20"/>
		<clipPath id="SVGID_98_">
			<use xlink:href="#SVGID_796_"  overflow="visible"/>
		</clipPath>
		<polygon clip-path="url(#SVGID_98_)" fill="#231F20" points="843.356,64.801 822.573,250.351 687.78,235.284 708.501,49.729 		"/>
	</g>
	<g>
		<defs>
			<path id="SVGID_798_" d="M807.504,230.977c-1.086-0.928-1.149-2.652-0.097-3.864c1.054-1.217,2.746-1.471,3.8-0.578
				c1.118,0.927,1.149,2.652,0.128,3.898c-0.639,0.703-1.5,1.082-2.33,1.082C808.493,231.515,807.951,231.325,807.504,230.977
				 M821.455,87.815c0,2.812,2.108,5.14,4.758,5.589v90.606c-0.096,5.938-1.533,29.246-14.207,39.781l-0.064-0.065
				c-2.14-0.892-4.789-0.318-6.546,1.726c-2.043,2.423-1.914,5.873,0.256,7.723c2.172,1.854,5.619,1.342,7.631-1.116
				c1.66-1.915,1.82-4.373,0.798-6.287c15.389-13.058,15.261-39.622,15.261-40.869h0.097V93.021
				c2.011-0.893,3.384-2.872,3.384-5.205c0-3.156-2.49-5.68-5.65-5.68C824.042,82.136,821.455,84.659,821.455,87.815"/>
		</defs>
		<use xlink:href="#SVGID_798_"  overflow="visible" fill="#231F20"/>
		<clipPath id="SVGID_99_">
			<use xlink:href="#SVGID_798_"  overflow="visible"/>
		</clipPath>
		<polygon clip-path="url(#SVGID_99_)" fill="#231F20" points="800.928,82.166 832.821,81.688 835.28,234.965 803.386,235.474 		"/>
	</g>
</g>
<polygon fill="#CC2C3A" points="1066.329,169.995 971.093,225.836 971.253,116.583 "/>
</svg>
