<?xml version="1.0" encoding="utf-8"?>
<!-- Generator: Adobe Illustrator 22.0.1, SVG Export Plug-In . SVG Version: 6.00 Build 0)  -->
<svg version="1.1" id="Layer_1" xmlns="http://www.w3.org/2000/svg" xmlns:xlink="http://www.w3.org/1999/xlink" x="0px" y="0px"
	 viewBox="0 0 56.7 56.7" style="enable-background:new 0 0 56.7 56.7;" xml:space="preserve">
<style type="text/css">
	.st0{fill:#434343;}
</style>
<g>
	<path class="st0" d="M30.4,14.6c-2.1-2.1-4.9-3.3-7.9-3.3s-5.8,1.2-7.9,3.3c-4.3,4.3-4.3,11.4,0,15.8c2.1,2.1,4.9,3.3,7.9,3.3
		s5.8-1.2,7.9-3.3c2.1-2.1,3.3-4.9,3.3-7.9S32.5,16.7,30.4,14.6z M29.5,29.4c-1.9,1.9-4.3,2.9-7,2.9c-2.6,0-5.1-1-7-2.9
		c-0.4-0.4-0.7-0.8-1-1.2l-0.7-1.1c-2-3.7-1.5-8.5,1.7-11.7c1.9-1.9,4.3-2.9,7-2.9c2.6,0,5.1,1,7,2.9c1.5,1.5,2.4,3.3,2.8,5.3
		l0.1,1.6C32.4,25.1,31.4,27.6,29.5,29.4z"/>
	<path class="st0" d="M38.4,32.6l-0.9,0.9l-2.3-2.4c2.7-4,3.4-8.9,2-13.3l-0.5-1.3c-0.7-1.8-1.8-3.4-3.3-4.9c-6-6-15.7-6-21.7,0
		c-5.3,5.3-5.9,13.7-1.7,19.6l0.8,1c0.3,0.4,0.6,0.7,1,1.1c3,3,6.9,4.5,10.9,4.5c3,0,6-0.9,8.6-2.6l2.3,2.4l-1,1l11.1,11.1l5.9-5.9
		L38.4,32.6z M12.6,32.4c-5.5-5.5-5.5-14.4,0-19.9c2.7-2.7,6.4-4.1,10-4.1c3.6,0,7.2,1.4,10,4.1c5.5,5.5,5.5,14.4,0,19.9
		C27,37.9,18.1,37.9,12.6,32.4z M32.2,34.4c0.4-0.3,0.8-0.7,1.2-1.1c0.4-0.4,0.7-0.8,1-1.2l2.2,2.3l-2.2,2.2L32.2,34.4z M43.6,47.8
		l-9.3-9.3l4.1-4.1l9.3,9.3L43.6,47.8z"/>
	<polygon class="st0" points="36.6,38.1 37.5,39 38.4,38.1 41.9,41.6 42.8,40.7 38.4,36.3 	"/>
	<rect x="43.3" y="42" transform="matrix(0.7071 -0.7071 0.7071 0.7071 -17.3059 43.5626)" class="st0" width="1.3" height="1.3"/>
	<g>
		<path class="st0" d="M16,27.6l0.2,0.5l1.9-1.9l0.8,0.2l0.2,0.8l-1.9,1.9l0.5,0.2c0.4,0.1,0.7,0.2,1.1,0.2c0.8,0,1.5-0.3,2.1-0.9
			c0.6-0.6,0.9-1.4,0.9-2.2c0-0.3-0.1-0.7-0.1-0.7l0.8-0.8l3.7-3.7c1,0.2,2-0.1,2.7-0.8c0.9-0.9,1.1-2.1,0.7-3.2l-0.2-0.5l-1.9,1.9
			l-0.8-0.2l-0.2-0.8l1.9-1.9L28,15.5c-1.1-0.5-2.4-0.2-3.2,0.7C24,16.9,23.7,18,24,19L23,20l-3.7,3.7l-0.6-0.1
			c-0.7,0-1.4,0.3-2,0.9C15.8,25.3,15.6,26.5,16,27.6z M17.2,24.9c0.5-0.5,1.1-0.7,1.8-0.7c0,0,0,0,0,0c0,0,0,0,0.1,0c0,0,0,0,0,0
			c0,0,0,0,0,0c0,0,0,0,0,0c0,0,0,0,0,0c0,0,0,0,0,0c0,0,0,0,0,0c0,0,0,0,0,0c0.1,0,0.1,0,0.2,0l0.2,0.1l4.6-4.6l0.5-0.5L24.7,19
			c-0.3-0.8-0.1-1.8,0.6-2.4c0.5-0.5,1.3-0.8,2-0.7l-1.5,1.5l0.4,1.5l1.5,0.4l1.5-1.5c0.1,0.7-0.1,1.5-0.7,2
			c-0.6,0.6-1.5,0.8-2.3,0.6l-0.2-0.1l-0.7,0.7l-1.8,1.8c0,0-2.7,2.5-2.7,2.5c0.1,0.2,0.2,0.3,0.2,0.3c0,0,0,0.1,0,0.1c0,0,0,0,0,0
			c0,0,0,0.1,0,0.1c0,0,0,0,0,0c0,0,0,0.1,0,0.1c0,0,0,0,0,0c0,0,0,0.1,0,0.1c0.1,0.7-0.2,1.4-0.7,1.9c-0.5,0.5-1.3,0.8-2,0.7
			l1.5-1.5l-0.4-1.5L18,25.4l-1.5,1.5C16.4,26.2,16.6,25.4,17.2,24.9z"/>
		
			<rect x="23.9" y="20.4" transform="matrix(0.7071 -0.7071 0.7071 0.7071 -7.5885 23.2195)" class="st0" width="0.7" height="0.7"/>
		<rect x="21.5" y="22" transform="matrix(0.7071 -0.7071 0.7071 0.7071 -9.1781 22.5616)" class="st0" width="2.2" height="0.7"/>
	</g>
</g>
</svg>
